2021-10-13T13:28:47.6701774+07:00  [INF] Server arty:9884:8dc6e32a successfully announced in 337.8859 ms (3b5ca34b)
2021-10-13T13:28:47.6811934+07:00  [INF] Server arty:9884:8dc6e32a is starting the registered dispatchers: ServerWatchdog, ServerJobCancellationWatcher, ExpirationManager, CountersAggregator, Worker, DelayedJobScheduler, RecurringJobScheduler... (3b5ca34b)
2021-10-13T13:28:47.7926064+07:00  [INF] Server arty:9884:8dc6e32a all the dispatchers started (3b5ca34b)
2021-10-13T13:28:48.0067567+07:00  [INF] Application started. Press Ctrl+C to shut down. (dcaefe54)
2021-10-13T13:28:48.0098372+07:00  [INF] Hosting environment: "Development" (c3307c92)
2021-10-13T13:28:48.0121610+07:00  [INF] Content root path: "C:\Users\Sahar\Documents\ohoapp\OhoApp" (b5d60022)
2021-10-13T13:28:48.0674816+07:00 40000026-0004-fe00-b63f-84710c7967bb [INF] Header: {
  "Accept": [
    "text/html,application/xhtml+xml,application/xml;q=0.9,image/webp,image/apng,*/*;q=0.8,application/signed-exchange;v=b3;q=0.9"
  ],
  "Accept-Encoding": [
    "gzip, deflate, br"
  ],
  "Accept-Language": [
    "en-US,en;q=0.9"
  ],
  "Connection": [
    "close"
  ],
  "Host": [
    "localhost:44390"
  ],
  "User-Agent": [
    "Mozilla/5.0 (Windows NT 10.0; Win64; x64) AppleWebKit/537.36 (KHTML, like Gecko) Chrome/93.0.4577.82 Safari/537.36 Edg/93.0.961.52"
  ],
  "sec-ch-ua": [
    "\"Microsoft Edge\";v=\"93\", \" Not;A Brand\";v=\"99\", \"Chromium\";v=\"93\""
  ],
  "sec-ch-ua-mobile": [
    "?0"
  ],
  "sec-ch-ua-platform": [
    "\"Windows\""
  ],
  "upgrade-insecure-requests": [
    "1"
  ],
  "sec-fetch-site": [
    "none"
  ],
  "sec-fetch-mode": [
    "navigate"
  ],
  "sec-fetch-user": [
    "?1"
  ],
  "sec-fetch-dest": [
    "document"
  ]
} (77c6ecff)
2021-10-13T13:28:48.0942404+07:00 40000026-0004-fe00-b63f-84710c7967bb [INF] Body:  (273944e2)
2021-10-13T13:28:48.0984749+07:00 40000026-0004-fe00-b63f-84710c7967bb [INF] Host: localhost (0ee9ab49)
2021-10-13T13:28:48.1036553+07:00 40000026-0004-fe00-b63f-84710c7967bb [INF] Client IP: ::1 (e950f482)
2021-10-13T13:29:39.7274875+07:00 4000001e-0001-ff00-b63f-84710c7967bb [INF] Header: {
  "Accept": [
    "text/plain"
  ],
  "Accept-Encoding": [
    "gzip, deflate, br"
  ],
  "Accept-Language": [
    "en-US,en;q=0.9"
  ],
  "Connection": [
    "close"
  ],
  "Content-Length": [
    "540"
  ],
  "Content-Type": [
    "application/json"
  ],
  "Host": [
    "localhost:44390"
  ],
  "Referer": [
    "https://localhost:44390/swagger/index.html"
  ],
  "User-Agent": [
    "Mozilla/5.0 (Windows NT 10.0; Win64; x64) AppleWebKit/537.36 (KHTML, like Gecko) Chrome/93.0.4577.82 Safari/537.36 Edg/93.0.961.52"
  ],
  "sec-ch-ua": [
    "\"Microsoft Edge\";v=\"93\", \" Not;A Brand\";v=\"99\", \"Chromium\";v=\"93\""
  ],
  "sec-ch-ua-mobile": [
    "?0"
  ],
  "sec-ch-ua-platform": [
    "\"Windows\""
  ],
  "origin": [
    "https://localhost:44390"
  ],
  "sec-fetch-site": [
    "same-origin"
  ],
  "sec-fetch-mode": [
    "cors"
  ],
  "sec-fetch-dest": [
    "empty"
  ]
} (38a6215e)
2021-10-13T13:29:39.7728504+07:00 4000001e-0001-ff00-b63f-84710c7967bb [INF] Body: {
  "payeeProxyId": "string",
  "payeeProxyType": "string",
  "payeeAccountNumber": "string",
  "payerAccountNumber": "string",
  "payerAccountName": "string",
  "payerName": "string",
  "sendingBankCode": "string",
  "receivingBankCode": "string",
  "amount": "string",
  "transactionId": "string",
  "transactionDateandTime": "2021-10-13T06:28:54.095Z",
  "billPaymentRef1": "P3ZGD4H2BP",
  "billPaymentRef2": "KDVIDD04SA",
  "billPaymentRef3": "AUZ",
  "currencyCode": "string",
  "channelCode": "string",
  "transactionType": "string"
} (bfcaf0de)
2021-10-13T13:29:39.7759954+07:00 4000001e-0001-ff00-b63f-84710c7967bb [INF] Host: localhost (0ee9ab49)
2021-10-13T13:29:39.7784082+07:00 4000001e-0001-ff00-b63f-84710c7967bb [INF] Client IP: ::1 (e950f482)
2021-10-13T13:31:35.3099392+07:00  [INF] Server arty:18928:5b0367f8 successfully announced in 288.0523 ms (3b5ca34b)
2021-10-13T13:31:35.3191957+07:00  [INF] Server arty:18928:5b0367f8 is starting the registered dispatchers: ServerWatchdog, ServerJobCancellationWatcher, ExpirationManager, CountersAggregator, Worker, DelayedJobScheduler, RecurringJobScheduler... (3b5ca34b)
2021-10-13T13:31:35.3985653+07:00  [INF] Server arty:18928:5b0367f8 all the dispatchers started (3b5ca34b)
2021-10-13T13:31:35.5722571+07:00  [INF] Application started. Press Ctrl+C to shut down. (dcaefe54)
2021-10-13T13:31:35.5752004+07:00  [INF] Hosting environment: "Development" (c3307c92)
2021-10-13T13:31:35.5772315+07:00  [INF] Content root path: "C:\Users\Sahar\Documents\ohoapp\OhoApp" (b5d60022)
2021-10-13T13:31:35.6186612+07:00 4000002a-0004-fe00-b63f-84710c7967bb [INF] Header: {
  "Accept": [
    "text/html,application/xhtml+xml,application/xml;q=0.9,image/webp,image/apng,*/*;q=0.8,application/signed-exchange;v=b3;q=0.9"
  ],
  "Accept-Encoding": [
    "gzip, deflate, br"
  ],
  "Accept-Language": [
    "en-US,en;q=0.9"
  ],
  "Connection": [
    "close"
  ],
  "Host": [
    "localhost:44390"
  ],
  "User-Agent": [
    "Mozilla/5.0 (Windows NT 10.0; Win64; x64) AppleWebKit/537.36 (KHTML, like Gecko) Chrome/93.0.4577.82 Safari/537.36 Edg/93.0.961.52"
  ],
  "sec-ch-ua": [
    "\"Microsoft Edge\";v=\"93\", \" Not;A Brand\";v=\"99\", \"Chromium\";v=\"93\""
  ],
  "sec-ch-ua-mobile": [
    "?0"
  ],
  "sec-ch-ua-platform": [
    "\"Windows\""
  ],
  "upgrade-insecure-requests": [
    "1"
  ],
  "sec-fetch-site": [
    "none"
  ],
  "sec-fetch-mode": [
    "navigate"
  ],
  "sec-fetch-user": [
    "?1"
  ],
  "sec-fetch-dest": [
    "document"
  ]
} (77c6ecff)
2021-10-13T13:31:35.6383269+07:00 4000002a-0004-fe00-b63f-84710c7967bb [INF] Body:  (273944e2)
2021-10-13T13:31:35.6410894+07:00 4000002a-0004-fe00-b63f-84710c7967bb [INF] Host: localhost (0ee9ab49)
2021-10-13T13:31:35.6444084+07:00 4000002a-0004-fe00-b63f-84710c7967bb [INF] Client IP: ::1 (e950f482)
2021-10-13T13:31:41.8373446+07:00 4000003b-0000-ff00-b63f-84710c7967bb [INF] Header: {
  "Accept": [
    "text/plain"
  ],
  "Accept-Encoding": [
    "gzip, deflate, br"
  ],
  "Accept-Language": [
    "en-US,en;q=0.9"
  ],
  "Connection": [
    "close"
  ],
  "Content-Length": [
    "540"
  ],
  "Content-Type": [
    "application/json"
  ],
  "Host": [
    "localhost:44390"
  ],
  "Referer": [
    "https://localhost:44390/swagger/index.html"
  ],
  "User-Agent": [
    "Mozilla/5.0 (Windows NT 10.0; Win64; x64) AppleWebKit/537.36 (KHTML, like Gecko) Chrome/93.0.4577.82 Safari/537.36 Edg/93.0.961.52"
  ],
  "sec-ch-ua": [
    "\"Microsoft Edge\";v=\"93\", \" Not;A Brand\";v=\"99\", \"Chromium\";v=\"93\""
  ],
  "sec-ch-ua-mobile": [
    "?0"
  ],
  "sec-ch-ua-platform": [
    "\"Windows\""
  ],
  "origin": [
    "https://localhost:44390"
  ],
  "sec-fetch-site": [
    "same-origin"
  ],
  "sec-fetch-mode": [
    "cors"
  ],
  "sec-fetch-dest": [
    "empty"
  ]
} (38a6215e)
2021-10-13T13:31:41.8493721+07:00 4000003b-0000-ff00-b63f-84710c7967bb [INF] Body: {
  "payeeProxyId": "string",
  "payeeProxyType": "string",
  "payeeAccountNumber": "string",
  "payerAccountNumber": "string",
  "payerAccountName": "string",
  "payerName": "string",
  "sendingBankCode": "string",
  "receivingBankCode": "string",
  "amount": "string",
  "transactionId": "string",
  "transactionDateandTime": "2021-10-13T06:28:54.095Z",
  "billPaymentRef1": "P3ZGD4H2BP",
  "billPaymentRef2": "KDVIDD04SA",
  "billPaymentRef3": "AUZ",
  "currencyCode": "string",
  "channelCode": "string",
  "transactionType": "string"
} (bfcaf0de)
2021-10-13T13:31:41.8516954+07:00 4000003b-0000-ff00-b63f-84710c7967bb [INF] Host: localhost (0ee9ab49)
2021-10-13T13:31:41.8545193+07:00 4000003b-0000-ff00-b63f-84710c7967bb [INF] Client IP: ::1 (e950f482)
2021-10-13T13:33:07.3246544+07:00  [INF] Server arty:32456:9c5ef97c successfully announced in 270.1253 ms (3b5ca34b)
2021-10-13T13:33:07.3333269+07:00  [INF] Server arty:32456:9c5ef97c is starting the registered dispatchers: ServerWatchdog, ServerJobCancellationWatcher, ExpirationManager, CountersAggregator, Worker, DelayedJobScheduler, RecurringJobScheduler... (3b5ca34b)
2021-10-13T13:33:07.4287997+07:00  [INF] Server arty:32456:9c5ef97c all the dispatchers started (3b5ca34b)
2021-10-13T13:33:07.6310387+07:00  [INF] Application started. Press Ctrl+C to shut down. (dcaefe54)
2021-10-13T13:33:07.6338265+07:00  [INF] Hosting environment: "Development" (c3307c92)
2021-10-13T13:33:07.6363729+07:00  [INF] Content root path: "C:\Users\Sahar\Documents\ohoapp\OhoApp" (b5d60022)
2021-10-13T13:33:07.6853255+07:00 4000002c-0004-fe00-b63f-84710c7967bb [INF] Header: {
  "Accept": [
    "text/html,application/xhtml+xml,application/xml;q=0.9,image/webp,image/apng,*/*;q=0.8,application/signed-exchange;v=b3;q=0.9"
  ],
  "Accept-Encoding": [
    "gzip, deflate, br"
  ],
  "Accept-Language": [
    "en-US,en;q=0.9"
  ],
  "Connection": [
    "close"
  ],
  "Host": [
    "localhost:44390"
  ],
  "User-Agent": [
    "Mozilla/5.0 (Windows NT 10.0; Win64; x64) AppleWebKit/537.36 (KHTML, like Gecko) Chrome/93.0.4577.82 Safari/537.36 Edg/93.0.961.52"
  ],
  "sec-ch-ua": [
    "\"Microsoft Edge\";v=\"93\", \" Not;A Brand\";v=\"99\", \"Chromium\";v=\"93\""
  ],
  "sec-ch-ua-mobile": [
    "?0"
  ],
  "sec-ch-ua-platform": [
    "\"Windows\""
  ],
  "upgrade-insecure-requests": [
    "1"
  ],
  "sec-fetch-site": [
    "none"
  ],
  "sec-fetch-mode": [
    "navigate"
  ],
  "sec-fetch-user": [
    "?1"
  ],
  "sec-fetch-dest": [
    "document"
  ]
} (77c6ecff)
2021-10-13T13:33:07.7093867+07:00 4000002c-0004-fe00-b63f-84710c7967bb [INF] Body:  (273944e2)
2021-10-13T13:33:07.7128910+07:00 4000002c-0004-fe00-b63f-84710c7967bb [INF] Host: localhost (0ee9ab49)
2021-10-13T13:33:07.7169843+07:00 4000002c-0004-fe00-b63f-84710c7967bb [INF] Client IP: ::1 (e950f482)
2021-10-13T13:33:19.7508620+07:00 4000002e-0004-fe00-b63f-84710c7967bb [INF] Header: {
  "Accept": [
    "text/plain"
  ],
  "Accept-Encoding": [
    "gzip, deflate, br"
  ],
  "Accept-Language": [
    "en-US,en;q=0.9"
  ],
  "Connection": [
    "close"
  ],
  "Content-Length": [
    "540"
  ],
  "Content-Type": [
    "application/json"
  ],
  "Host": [
    "localhost:44390"
  ],
  "Referer": [
    "https://localhost:44390/swagger/index.html"
  ],
  "User-Agent": [
    "Mozilla/5.0 (Windows NT 10.0; Win64; x64) AppleWebKit/537.36 (KHTML, like Gecko) Chrome/93.0.4577.82 Safari/537.36 Edg/93.0.961.52"
  ],
  "sec-ch-ua": [
    "\"Microsoft Edge\";v=\"93\", \" Not;A Brand\";v=\"99\", \"Chromium\";v=\"93\""
  ],
  "sec-ch-ua-mobile": [
    "?0"
  ],
  "sec-ch-ua-platform": [
    "\"Windows\""
  ],
  "origin": [
    "https://localhost:44390"
  ],
  "sec-fetch-site": [
    "same-origin"
  ],
  "sec-fetch-mode": [
    "cors"
  ],
  "sec-fetch-dest": [
    "empty"
  ]
} (38a6215e)
2021-10-13T13:33:19.7641271+07:00 4000002e-0004-fe00-b63f-84710c7967bb [INF] Body: {
  "payeeProxyId": "string",
  "payeeProxyType": "string",
  "payeeAccountNumber": "string",
  "payerAccountNumber": "string",
  "payerAccountName": "string",
  "payerName": "string",
  "sendingBankCode": "string",
  "receivingBankCode": "string",
  "amount": "string",
  "transactionId": "string",
  "transactionDateandTime": "2021-10-13T06:28:54.095Z",
  "billPaymentRef1": "P3ZGD4H2BP",
  "billPaymentRef2": "KDVIDD04SA",
  "billPaymentRef3": "AUZ",
  "currencyCode": "string",
  "channelCode": "string",
  "transactionType": "string"
} (bfcaf0de)
2021-10-13T13:33:19.7674520+07:00 4000002e-0004-fe00-b63f-84710c7967bb [INF] Host: localhost (0ee9ab49)
2021-10-13T13:33:19.7708095+07:00 4000002e-0004-fe00-b63f-84710c7967bb [INF] Client IP: ::1 (e950f482)
2021-10-13T13:39:49.9852599+07:00  [INF] Server arty:32508:62063cea successfully announced in 270.2965 ms (3b5ca34b)
2021-10-13T13:39:49.9950484+07:00  [INF] Server arty:32508:62063cea is starting the registered dispatchers: ServerWatchdog, ServerJobCancellationWatcher, ExpirationManager, CountersAggregator, Worker, DelayedJobScheduler, RecurringJobScheduler... (3b5ca34b)
2021-10-13T13:39:50.0696215+07:00  [INF] Server arty:32508:62063cea all the dispatchers started (3b5ca34b)
2021-10-13T13:39:50.1130827+07:00  [INF] 3 servers were removed due to timeout (3b5ca34b)
2021-10-13T13:39:50.2520636+07:00  [INF] Application started. Press Ctrl+C to shut down. (dcaefe54)
2021-10-13T13:39:50.2560140+07:00  [INF] Hosting environment: "Development" (c3307c92)
2021-10-13T13:39:50.2585308+07:00  [INF] Content root path: "C:\Users\Sahar\Documents\ohoapp\OhoApp" (b5d60022)
2021-10-13T13:39:50.3019793+07:00 4000001d-0005-fe00-b63f-84710c7967bb [INF] Header: {
  "Accept": [
    "text/html,application/xhtml+xml,application/xml;q=0.9,image/webp,image/apng,*/*;q=0.8,application/signed-exchange;v=b3;q=0.9"
  ],
  "Accept-Encoding": [
    "gzip, deflate, br"
  ],
  "Accept-Language": [
    "en-US,en;q=0.9"
  ],
  "Connection": [
    "close"
  ],
  "Host": [
    "localhost:44390"
  ],
  "User-Agent": [
    "Mozilla/5.0 (Windows NT 10.0; Win64; x64) AppleWebKit/537.36 (KHTML, like Gecko) Chrome/93.0.4577.82 Safari/537.36 Edg/93.0.961.52"
  ],
  "sec-ch-ua": [
    "\"Microsoft Edge\";v=\"93\", \" Not;A Brand\";v=\"99\", \"Chromium\";v=\"93\""
  ],
  "sec-ch-ua-mobile": [
    "?0"
  ],
  "sec-ch-ua-platform": [
    "\"Windows\""
  ],
  "upgrade-insecure-requests": [
    "1"
  ],
  "sec-fetch-site": [
    "none"
  ],
  "sec-fetch-mode": [
    "navigate"
  ],
  "sec-fetch-user": [
    "?1"
  ],
  "sec-fetch-dest": [
    "document"
  ]
} (77c6ecff)
2021-10-13T13:39:50.3224309+07:00 4000001d-0005-fe00-b63f-84710c7967bb [INF] Body:  (273944e2)
2021-10-13T13:39:50.3245684+07:00 4000001d-0005-fe00-b63f-84710c7967bb [INF] Host: localhost (0ee9ab49)
2021-10-13T13:39:50.3281428+07:00 4000001d-0005-fe00-b63f-84710c7967bb [INF] Client IP: ::1 (e950f482)
2021-10-13T13:40:12.9313976+07:00  [INF] Server arty:5212:29e6e396 successfully announced in 343.5079 ms (3b5ca34b)
2021-10-13T13:40:12.9528929+07:00  [INF] Server arty:5212:29e6e396 is starting the registered dispatchers: ServerWatchdog, ServerJobCancellationWatcher, ExpirationManager, CountersAggregator, Worker, DelayedJobScheduler, RecurringJobScheduler... (3b5ca34b)
2021-10-13T13:40:13.0454375+07:00  [INF] Server arty:5212:29e6e396 all the dispatchers started (3b5ca34b)
2021-10-13T13:40:13.3004041+07:00  [INF] Application started. Press Ctrl+C to shut down. (dcaefe54)
2021-10-13T13:40:13.3030253+07:00  [INF] Hosting environment: "Development" (c3307c92)
2021-10-13T13:40:13.3052654+07:00  [INF] Content root path: "C:\Users\Sahar\Documents\ohoapp\OhoApp" (b5d60022)
2021-10-13T13:40:13.3558326+07:00 4000001a-0007-fe00-b63f-84710c7967bb [INF] Header: {
  "Accept": [
    "text/html,application/xhtml+xml,application/xml;q=0.9,image/webp,image/apng,*/*;q=0.8,application/signed-exchange;v=b3;q=0.9"
  ],
  "Accept-Encoding": [
    "gzip, deflate, br"
  ],
  "Accept-Language": [
    "en-US,en;q=0.9"
  ],
  "Connection": [
    "close"
  ],
  "Host": [
    "localhost:44390"
  ],
  "User-Agent": [
    "Mozilla/5.0 (Windows NT 10.0; Win64; x64) AppleWebKit/537.36 (KHTML, like Gecko) Chrome/93.0.4577.82 Safari/537.36 Edg/93.0.961.52"
  ],
  "sec-ch-ua": [
    "\"Microsoft Edge\";v=\"93\", \" Not;A Brand\";v=\"99\", \"Chromium\";v=\"93\""
  ],
  "sec-ch-ua-mobile": [
    "?0"
  ],
  "sec-ch-ua-platform": [
    "\"Windows\""
  ],
  "upgrade-insecure-requests": [
    "1"
  ],
  "sec-fetch-site": [
    "none"
  ],
  "sec-fetch-mode": [
    "navigate"
  ],
  "sec-fetch-user": [
    "?1"
  ],
  "sec-fetch-dest": [
    "document"
  ]
} (77c6ecff)
2021-10-13T13:40:13.3886034+07:00 4000001a-0007-fe00-b63f-84710c7967bb [INF] Body:  (273944e2)
2021-10-13T13:40:13.3918946+07:00 4000001a-0007-fe00-b63f-84710c7967bb [INF] Host: localhost (0ee9ab49)
2021-10-13T13:40:13.3961926+07:00 4000001a-0007-fe00-b63f-84710c7967bb [INF] Client IP: ::1 (e950f482)
2021-10-13T13:40:35.3687757+07:00 4000001c-0004-ff00-b63f-84710c7967bb [INF] Header: {
  "Accept": [
    "text/plain"
  ],
  "Accept-Encoding": [
    "gzip, deflate, br"
  ],
  "Accept-Language": [
    "en-US,en;q=0.9"
  ],
  "Connection": [
    "close"
  ],
  "Content-Length": [
    "540"
  ],
  "Content-Type": [
    "application/json"
  ],
  "Host": [
    "localhost:44390"
  ],
  "Referer": [
    "https://localhost:44390/swagger/index.html"
  ],
  "User-Agent": [
    "Mozilla/5.0 (Windows NT 10.0; Win64; x64) AppleWebKit/537.36 (KHTML, like Gecko) Chrome/93.0.4577.82 Safari/537.36 Edg/93.0.961.52"
  ],
  "sec-ch-ua": [
    "\"Microsoft Edge\";v=\"93\", \" Not;A Brand\";v=\"99\", \"Chromium\";v=\"93\""
  ],
  "sec-ch-ua-mobile": [
    "?0"
  ],
  "sec-ch-ua-platform": [
    "\"Windows\""
  ],
  "origin": [
    "https://localhost:44390"
  ],
  "sec-fetch-site": [
    "same-origin"
  ],
  "sec-fetch-mode": [
    "cors"
  ],
  "sec-fetch-dest": [
    "empty"
  ]
} (38a6215e)
2021-10-13T13:40:35.3801721+07:00 4000001c-0004-ff00-b63f-84710c7967bb [INF] Body: {
  "payeeProxyId": "string",
  "payeeProxyType": "string",
  "payeeAccountNumber": "string",
  "payerAccountNumber": "string",
  "payerAccountName": "string",
  "payerName": "string",
  "sendingBankCode": "string",
  "receivingBankCode": "string",
  "amount": "string",
  "transactionId": "string",
  "transactionDateandTime": "2021-10-13T06:40:22.341Z",
  "billPaymentRef1": "P3ZGD4H2BP",
  "billPaymentRef2": "KDVIDD04SA",
  "billPaymentRef3": "AUZ",
  "currencyCode": "string",
  "channelCode": "string",
  "transactionType": "string"
} (b2291a9f)
2021-10-13T13:40:35.3842393+07:00 4000001c-0004-ff00-b63f-84710c7967bb [INF] Host: localhost (0ee9ab49)
2021-10-13T13:40:35.3876227+07:00 4000001c-0004-ff00-b63f-84710c7967bb [INF] Client IP: ::1 (e950f482)
2021-10-13T13:45:13.0063463+07:00  [INF] 1 servers were removed due to timeout (3b5ca34b)
2021-10-13T13:47:06.6993565+07:00  [INF] Server arty:9412:b0ecbdef successfully announced in 272.0831 ms (3b5ca34b)
2021-10-13T13:47:06.7099293+07:00  [INF] Server arty:9412:b0ecbdef is starting the registered dispatchers: ServerWatchdog, ServerJobCancellationWatcher, ExpirationManager, CountersAggregator, Worker, DelayedJobScheduler, RecurringJobScheduler... (3b5ca34b)
2021-10-13T13:47:06.7876346+07:00  [INF] Server arty:9412:b0ecbdef all the dispatchers started (3b5ca34b)
2021-10-13T13:47:06.9819340+07:00  [INF] Application started. Press Ctrl+C to shut down. (dcaefe54)
2021-10-13T13:47:06.9846026+07:00  [INF] Hosting environment: "Development" (c3307c92)
2021-10-13T13:47:06.9866495+07:00  [INF] Content root path: "C:\Users\Sahar\Documents\ohoapp\OhoApp" (b5d60022)
2021-10-13T13:47:07.0297284+07:00 40000016-0003-ff00-b63f-84710c7967bb [INF] Header: {
  "Accept": [
    "text/html,application/xhtml+xml,application/xml;q=0.9,image/webp,image/apng,*/*;q=0.8,application/signed-exchange;v=b3;q=0.9"
  ],
  "Accept-Encoding": [
    "gzip, deflate, br"
  ],
  "Accept-Language": [
    "en-US,en;q=0.9"
  ],
  "Connection": [
    "close"
  ],
  "Host": [
    "localhost:44390"
  ],
  "User-Agent": [
    "Mozilla/5.0 (Windows NT 10.0; Win64; x64) AppleWebKit/537.36 (KHTML, like Gecko) Chrome/93.0.4577.82 Safari/537.36 Edg/93.0.961.52"
  ],
  "sec-ch-ua": [
    "\"Microsoft Edge\";v=\"93\", \" Not;A Brand\";v=\"99\", \"Chromium\";v=\"93\""
  ],
  "sec-ch-ua-mobile": [
    "?0"
  ],
  "sec-ch-ua-platform": [
    "\"Windows\""
  ],
  "upgrade-insecure-requests": [
    "1"
  ],
  "sec-fetch-site": [
    "none"
  ],
  "sec-fetch-mode": [
    "navigate"
  ],
  "sec-fetch-user": [
    "?1"
  ],
  "sec-fetch-dest": [
    "document"
  ]
} (77c6ecff)
2021-10-13T13:47:07.0490237+07:00 40000016-0003-ff00-b63f-84710c7967bb [INF] Body:  (273944e2)
2021-10-13T13:47:07.0511546+07:00 40000016-0003-ff00-b63f-84710c7967bb [INF] Host: localhost (0ee9ab49)
2021-10-13T13:47:07.0549512+07:00 40000016-0003-ff00-b63f-84710c7967bb [INF] Client IP: ::1 (e950f482)
2021-10-13T13:47:28.0248375+07:00 40000031-0004-fe00-b63f-84710c7967bb [INF] Header: {
  "Accept": [
    "*/*"
  ],
  "Accept-Encoding": [
    "gzip, deflate, br"
  ],
  "Connection": [
    "keep-alive"
  ],
  "Content-Length": [
    "64"
  ],
  "Content-Type": [
    "application/json"
  ],
  "Host": [
    "localhost:44390"
  ],
  "User-Agent": [
    "PostmanRuntime/7.28.4"
  ],
  "Postman-Token": [
    "a4c715db-82ca-4c58-a702-a26cc526c6c5"
  ]
} (3665c505)
2021-10-13T13:47:28.0328719+07:00 40000031-0004-fe00-b63f-84710c7967bb [INF] Body: {
  "Username": "test1@gmail.com",
  "password": "test1150"
} (a0131dbe)
2021-10-13T13:47:28.0372817+07:00 40000031-0004-fe00-b63f-84710c7967bb [INF] Host: localhost (0ee9ab49)
2021-10-13T13:47:28.0401260+07:00 40000031-0004-fe00-b63f-84710c7967bb [INF] Client IP: ::1 (e950f482)
2021-10-13T13:47:37.1068170+07:00 4000001c-0007-fe00-b63f-84710c7967bb [INF] Header: {
  "Accept": [
    "text/plain"
  ],
  "Accept-Encoding": [
    "gzip, deflate, br"
  ],
  "Accept-Language": [
    "en-US,en;q=0.9"
  ],
  "Authorization": [
    "bearer eyJhbGciOiJIUzI1NiIsInR5cCI6IkpXVCJ9.eyJodHRwOi8vc2NoZW1hcy54bWxzb2FwLm9yZy93cy8yMDA1LzA1L2lkZW50aXR5L2NsYWltcy9zaWQiOiI2NzRiZDZmYTYyNGU0YmZlOGQ3OWQzMjBkMmM4M2YxMyIsImh0dHA6Ly9zY2hlbWFzLnhtbHNvYXAub3JnL3dzLzIwMDUvMDUvaWRlbnRpdHkvY2xhaW1zL2VtYWlsYWRkcmVzcyI6InRlc3QxQGdtYWlsLmNvbSIsImh0dHA6Ly9zY2hlbWFzLnhtbHNvYXAub3JnL3dzLzIwMDUvMDUvaWRlbnRpdHkvY2xhaW1zL21vYmlsZXBob25lIjoiMDgxMjg0NDI3NyIsImh0dHA6Ly9zY2hlbWFzLnhtbHNvYXAub3JnL3dzLzIwMDUvMDUvaWRlbnRpdHkvY2xhaW1zL25hbWVpZGVudGlmaWVyIjoiMTIiLCJteWtleSI6Ik9ob0N1c3RvbWVyIiwiZXhwIjoxNjY1NjQzNjQ4fQ.5KEdyMU77JaDB2jW_PQfdmvjljFWqnjw3TcvnVp2DWs"
  ],
  "Connection": [
    "close"
  ],
  "Content-Length": [
    "529"
  ],
  "Content-Type": [
    "application/json"
  ],
  "Host": [
    "localhost:44390"
  ],
  "Referer": [
    "https://localhost:44390/swagger/index.html"
  ],
  "User-Agent": [
    "Mozilla/5.0 (Windows NT 10.0; Win64; x64) AppleWebKit/537.36 (KHTML, like Gecko) Chrome/93.0.4577.82 Safari/537.36 Edg/93.0.961.52"
  ],
  "sec-ch-ua": [
    "\"Microsoft Edge\";v=\"93\", \" Not;A Brand\";v=\"99\", \"Chromium\";v=\"93\""
  ],
  "sec-ch-ua-mobile": [
    "?0"
  ],
  "sec-ch-ua-platform": [
    "\"Windows\""
  ],
  "origin": [
    "https://localhost:44390"
  ],
  "sec-fetch-site": [
    "same-origin"
  ],
  "sec-fetch-mode": [
    "cors"
  ],
  "sec-fetch-dest": [
    "empty"
  ]
} (b1ed91e4)
2021-10-13T13:47:37.1168494+07:00 4000001c-0007-fe00-b63f-84710c7967bb [INF] Body: {
  "orderID": 317,
  "logID": 300,
  "distance": "7.8",
  "order_Type": 3,
  "reS_ID": 10,
  "customer": {
    "name": "Test",
    "phoneNumber": "Test"
  },
  "address": {
    "name": "Test",
    "location": "18.807167,99.06299020821527",
    "address": "Test",
    "addressDetail": "Test",
    "comment": "string"
  },
  "coupon_ID": 0,
  "paymentMethod": 1,
  "startTime": "10:30",
  "endTime": "11:00",
  "deliveryFee": 64,
  "items": [
    {
      "menuItem_ID": 10,
      "amount": 1,
      "comment": "string"
    }
  ]
} (aaf8f381)
2021-10-13T13:47:37.1205583+07:00 4000001c-0007-fe00-b63f-84710c7967bb [INF] Host: localhost (0ee9ab49)
2021-10-13T13:47:37.1234475+07:00 4000001c-0007-fe00-b63f-84710c7967bb [INF] Client IP: ::1 (e950f482)
2021-10-13T13:48:09.2586995+07:00  [INF] Server arty:12864:8675c6b1 successfully announced in 299.0494 ms (3b5ca34b)
2021-10-13T13:48:09.2692202+07:00  [INF] Server arty:12864:8675c6b1 is starting the registered dispatchers: ServerWatchdog, ServerJobCancellationWatcher, ExpirationManager, CountersAggregator, Worker, DelayedJobScheduler, RecurringJobScheduler... (3b5ca34b)
2021-10-13T13:48:09.3532166+07:00  [INF] Server arty:12864:8675c6b1 all the dispatchers started (3b5ca34b)
2021-10-13T13:48:09.5289936+07:00  [INF] Application started. Press Ctrl+C to shut down. (dcaefe54)
2021-10-13T13:48:09.5317720+07:00  [INF] Hosting environment: "Development" (c3307c92)
2021-10-13T13:48:09.5336534+07:00  [INF] Content root path: "C:\Users\Sahar\Documents\ohoapp\OhoApp" (b5d60022)
2021-10-13T13:48:09.5852937+07:00 40000018-0003-ff00-b63f-84710c7967bb [INF] Header: {
  "Accept": [
    "text/html,application/xhtml+xml,application/xml;q=0.9,image/webp,image/apng,*/*;q=0.8,application/signed-exchange;v=b3;q=0.9"
  ],
  "Accept-Encoding": [
    "gzip, deflate, br"
  ],
  "Accept-Language": [
    "en-US,en;q=0.9"
  ],
  "Connection": [
    "close"
  ],
  "Host": [
    "localhost:44390"
  ],
  "User-Agent": [
    "Mozilla/5.0 (Windows NT 10.0; Win64; x64) AppleWebKit/537.36 (KHTML, like Gecko) Chrome/93.0.4577.82 Safari/537.36 Edg/93.0.961.52"
  ],
  "sec-ch-ua": [
    "\"Microsoft Edge\";v=\"93\", \" Not;A Brand\";v=\"99\", \"Chromium\";v=\"93\""
  ],
  "sec-ch-ua-mobile": [
    "?0"
  ],
  "sec-ch-ua-platform": [
    "\"Windows\""
  ],
  "upgrade-insecure-requests": [
    "1"
  ],
  "sec-fetch-site": [
    "none"
  ],
  "sec-fetch-mode": [
    "navigate"
  ],
  "sec-fetch-user": [
    "?1"
  ],
  "sec-fetch-dest": [
    "document"
  ]
} (77c6ecff)
2021-10-13T13:48:09.6069514+07:00 40000018-0003-ff00-b63f-84710c7967bb [INF] Body:  (273944e2)
2021-10-13T13:48:09.6094987+07:00 40000018-0003-ff00-b63f-84710c7967bb [INF] Host: localhost (0ee9ab49)
2021-10-13T13:48:09.6128432+07:00 40000018-0003-ff00-b63f-84710c7967bb [INF] Client IP: ::1 (e950f482)
2021-10-13T13:48:33.3778941+07:00 4000000b-0006-fd00-b63f-84710c7967bb [INF] Header: {
  "Accept": [
    "text/plain"
  ],
  "Accept-Encoding": [
    "gzip, deflate, br"
  ],
  "Accept-Language": [
    "en-US,en;q=0.9"
  ],
  "Authorization": [
    "bearer eyJhbGciOiJIUzI1NiIsInR5cCI6IkpXVCJ9.eyJodHRwOi8vc2NoZW1hcy54bWxzb2FwLm9yZy93cy8yMDA1LzA1L2lkZW50aXR5L2NsYWltcy9zaWQiOiI2NzRiZDZmYTYyNGU0YmZlOGQ3OWQzMjBkMmM4M2YxMyIsImh0dHA6Ly9zY2hlbWFzLnhtbHNvYXAub3JnL3dzLzIwMDUvMDUvaWRlbnRpdHkvY2xhaW1zL2VtYWlsYWRkcmVzcyI6InRlc3QxQGdtYWlsLmNvbSIsImh0dHA6Ly9zY2hlbWFzLnhtbHNvYXAub3JnL3dzLzIwMDUvMDUvaWRlbnRpdHkvY2xhaW1zL21vYmlsZXBob25lIjoiMDgxMjg0NDI3NyIsImh0dHA6Ly9zY2hlbWFzLnhtbHNvYXAub3JnL3dzLzIwMDUvMDUvaWRlbnRpdHkvY2xhaW1zL25hbWVpZGVudGlmaWVyIjoiMTIiLCJteWtleSI6Ik9ob0N1c3RvbWVyIiwiZXhwIjoxNjY1NjQzNjQ4fQ.5KEdyMU77JaDB2jW_PQfdmvjljFWqnjw3TcvnVp2DWs"
  ],
  "Connection": [
    "close"
  ],
  "Content-Length": [
    "527"
  ],
  "Content-Type": [
    "application/json"
  ],
  "Host": [
    "localhost:44390"
  ],
  "Referer": [
    "https://localhost:44390/swagger/index.html"
  ],
  "User-Agent": [
    "Mozilla/5.0 (Windows NT 10.0; Win64; x64) AppleWebKit/537.36 (KHTML, like Gecko) Chrome/93.0.4577.82 Safari/537.36 Edg/93.0.961.52"
  ],
  "sec-ch-ua": [
    "\"Microsoft Edge\";v=\"93\", \" Not;A Brand\";v=\"99\", \"Chromium\";v=\"93\""
  ],
  "sec-ch-ua-mobile": [
    "?0"
  ],
  "sec-ch-ua-platform": [
    "\"Windows\""
  ],
  "origin": [
    "https://localhost:44390"
  ],
  "sec-fetch-site": [
    "same-origin"
  ],
  "sec-fetch-mode": [
    "cors"
  ],
  "sec-fetch-dest": [
    "empty"
  ]
} (46278291)
2021-10-13T13:48:33.3882142+07:00 4000000b-0006-fd00-b63f-84710c7967bb [INF] Body: {
  "orderID": 316,
  "logID": 299,
  "distance": "7.8",
  "order_Type": 3,
  "reS_ID": 1,
  "customer": {
    "name": "Test",
    "phoneNumber": "0904502232"
  },
  "address": {
    "name": "Test",
    "location": "15.1890494,100.1367173",
    "address": "Test",
    "addressDetail": "Test",
    "comment": "Test"
  },
  "coupon_ID": 0,
  "paymentMethod": 1,
  "startTime": "10:00",
  "endTime": "10:30",
  "deliveryFee": 64,
  "items": [
    {
      "menuItem_ID": 10,
      "amount": 1,
      "comment": "string"
    }
  ]
} (04d5c13b)
2021-10-13T13:48:33.3916328+07:00 4000000b-0006-fd00-b63f-84710c7967bb [INF] Host: localhost (0ee9ab49)
2021-10-13T13:48:33.3946041+07:00 4000000b-0006-fd00-b63f-84710c7967bb [INF] Client IP: ::1 (e950f482)
2021-10-13T13:48:51.2239772+07:00 40000023-0005-fe00-b63f-84710c7967bb [INF] Header: {
  "Accept": [
    "text/plain"
  ],
  "Accept-Encoding": [
    "gzip, deflate, br"
  ],
  "Accept-Language": [
    "en-US,en;q=0.9"
  ],
  "Authorization": [
    "bearer eyJhbGciOiJIUzI1NiIsInR5cCI6IkpXVCJ9.eyJodHRwOi8vc2NoZW1hcy54bWxzb2FwLm9yZy93cy8yMDA1LzA1L2lkZW50aXR5L2NsYWltcy9zaWQiOiI2NzRiZDZmYTYyNGU0YmZlOGQ3OWQzMjBkMmM4M2YxMyIsImh0dHA6Ly9zY2hlbWFzLnhtbHNvYXAub3JnL3dzLzIwMDUvMDUvaWRlbnRpdHkvY2xhaW1zL2VtYWlsYWRkcmVzcyI6InRlc3QxQGdtYWlsLmNvbSIsImh0dHA6Ly9zY2hlbWFzLnhtbHNvYXAub3JnL3dzLzIwMDUvMDUvaWRlbnRpdHkvY2xhaW1zL21vYmlsZXBob25lIjoiMDgxMjg0NDI3NyIsImh0dHA6Ly9zY2hlbWFzLnhtbHNvYXAub3JnL3dzLzIwMDUvMDUvaWRlbnRpdHkvY2xhaW1zL25hbWVpZGVudGlmaWVyIjoiMTIiLCJteWtleSI6Ik9ob0N1c3RvbWVyIiwiZXhwIjoxNjY1NjQzNjQ4fQ.5KEdyMU77JaDB2jW_PQfdmvjljFWqnjw3TcvnVp2DWs"
  ],
  "Connection": [
    "close"
  ],
  "Content-Length": [
    "34"
  ],
  "Content-Type": [
    "application/json"
  ],
  "Host": [
    "localhost:44390"
  ],
  "Referer": [
    "https://localhost:44390/swagger/index.html"
  ],
  "User-Agent": [
    "Mozilla/5.0 (Windows NT 10.0; Win64; x64) AppleWebKit/537.36 (KHTML, like Gecko) Chrome/93.0.4577.82 Safari/537.36 Edg/93.0.961.52"
  ],
  "sec-ch-ua": [
    "\"Microsoft Edge\";v=\"93\", \" Not;A Brand\";v=\"99\", \"Chromium\";v=\"93\""
  ],
  "sec-ch-ua-mobile": [
    "?0"
  ],
  "sec-ch-ua-platform": [
    "\"Windows\""
  ],
  "origin": [
    "https://localhost:44390"
  ],
  "sec-fetch-site": [
    "same-origin"
  ],
  "sec-fetch-mode": [
    "cors"
  ],
  "sec-fetch-dest": [
    "empty"
  ]
} (084372aa)
2021-10-13T13:48:51.2291607+07:00 40000023-0005-fe00-b63f-84710c7967bb [INF] Body: {
  "id": 233,
  "amount": "199"
} (9318464d)
2021-10-13T13:48:51.2392267+07:00 40000023-0005-fe00-b63f-84710c7967bb [INF] Host: localhost (0ee9ab49)
2021-10-13T13:48:51.2428878+07:00 40000023-0005-fe00-b63f-84710c7967bb [INF] Client IP: ::1 (e950f482)
2021-10-13T13:49:12.1719700+07:00 40000023-0001-ff00-b63f-84710c7967bb [INF] Header: {
  "Accept": [
    "text/plain"
  ],
  "Accept-Encoding": [
    "gzip, deflate, br"
  ],
  "Accept-Language": [
    "en-US,en;q=0.9"
  ],
  "Authorization": [
    "bearer eyJhbGciOiJIUzI1NiIsInR5cCI6IkpXVCJ9.eyJodHRwOi8vc2NoZW1hcy54bWxzb2FwLm9yZy93cy8yMDA1LzA1L2lkZW50aXR5L2NsYWltcy9zaWQiOiI2NzRiZDZmYTYyNGU0YmZlOGQ3OWQzMjBkMmM4M2YxMyIsImh0dHA6Ly9zY2hlbWFzLnhtbHNvYXAub3JnL3dzLzIwMDUvMDUvaWRlbnRpdHkvY2xhaW1zL2VtYWlsYWRkcmVzcyI6InRlc3QxQGdtYWlsLmNvbSIsImh0dHA6Ly9zY2hlbWFzLnhtbHNvYXAub3JnL3dzLzIwMDUvMDUvaWRlbnRpdHkvY2xhaW1zL21vYmlsZXBob25lIjoiMDgxMjg0NDI3NyIsImh0dHA6Ly9zY2hlbWFzLnhtbHNvYXAub3JnL3dzLzIwMDUvMDUvaWRlbnRpdHkvY2xhaW1zL25hbWVpZGVudGlmaWVyIjoiMTIiLCJteWtleSI6Ik9ob0N1c3RvbWVyIiwiZXhwIjoxNjY1NjQzNjQ4fQ.5KEdyMU77JaDB2jW_PQfdmvjljFWqnjw3TcvnVp2DWs"
  ],
  "Connection": [
    "close"
  ],
  "Host": [
    "localhost:44390"
  ],
  "Referer": [
    "https://localhost:44390/swagger/index.html"
  ],
  "User-Agent": [
    "Mozilla/5.0 (Windows NT 10.0; Win64; x64) AppleWebKit/537.36 (KHTML, like Gecko) Chrome/93.0.4577.82 Safari/537.36 Edg/93.0.961.52"
  ],
  "sec-ch-ua": [
    "\"Microsoft Edge\";v=\"93\", \" Not;A Brand\";v=\"99\", \"Chromium\";v=\"93\""
  ],
  "sec-ch-ua-mobile": [
    "?0"
  ],
  "sec-ch-ua-platform": [
    "\"Windows\""
  ],
  "sec-fetch-site": [
    "same-origin"
  ],
  "sec-fetch-mode": [
    "cors"
  ],
  "sec-fetch-dest": [
    "empty"
  ]
} (245850fd)
2021-10-13T13:49:12.1758674+07:00 40000023-0001-ff00-b63f-84710c7967bb [INF] Body:  (273944e2)
2021-10-13T13:49:12.1785841+07:00 40000023-0001-ff00-b63f-84710c7967bb [INF] Host: localhost (0ee9ab49)
2021-10-13T13:49:12.1868815+07:00 40000023-0001-ff00-b63f-84710c7967bb [INF] Client IP: ::1 (e950f482)
2021-10-13T13:50:10.5837591+07:00 4000002b-0007-ff00-b63f-84710c7967bb [INF] Header: {
  "Accept": [
    "text/plain"
  ],
  "Accept-Encoding": [
    "gzip, deflate, br"
  ],
  "Accept-Language": [
    "en-US,en;q=0.9"
  ],
  "Authorization": [
    "bearer eyJhbGciOiJIUzI1NiIsInR5cCI6IkpXVCJ9.eyJodHRwOi8vc2NoZW1hcy54bWxzb2FwLm9yZy93cy8yMDA1LzA1L2lkZW50aXR5L2NsYWltcy9zaWQiOiI2NzRiZDZmYTYyNGU0YmZlOGQ3OWQzMjBkMmM4M2YxMyIsImh0dHA6Ly9zY2hlbWFzLnhtbHNvYXAub3JnL3dzLzIwMDUvMDUvaWRlbnRpdHkvY2xhaW1zL2VtYWlsYWRkcmVzcyI6InRlc3QxQGdtYWlsLmNvbSIsImh0dHA6Ly9zY2hlbWFzLnhtbHNvYXAub3JnL3dzLzIwMDUvMDUvaWRlbnRpdHkvY2xhaW1zL21vYmlsZXBob25lIjoiMDgxMjg0NDI3NyIsImh0dHA6Ly9zY2hlbWFzLnhtbHNvYXAub3JnL3dzLzIwMDUvMDUvaWRlbnRpdHkvY2xhaW1zL25hbWVpZGVudGlmaWVyIjoiMTIiLCJteWtleSI6Ik9ob0N1c3RvbWVyIiwiZXhwIjoxNjY1NjQzNjQ4fQ.5KEdyMU77JaDB2jW_PQfdmvjljFWqnjw3TcvnVp2DWs"
  ],
  "Connection": [
    "close"
  ],
  "Content-Length": [
    "540"
  ],
  "Content-Type": [
    "application/json"
  ],
  "Host": [
    "localhost:44390"
  ],
  "Referer": [
    "https://localhost:44390/swagger/index.html"
  ],
  "User-Agent": [
    "Mozilla/5.0 (Windows NT 10.0; Win64; x64) AppleWebKit/537.36 (KHTML, like Gecko) Chrome/93.0.4577.82 Safari/537.36 Edg/93.0.961.52"
  ],
  "sec-ch-ua": [
    "\"Microsoft Edge\";v=\"93\", \" Not;A Brand\";v=\"99\", \"Chromium\";v=\"93\""
  ],
  "sec-ch-ua-mobile": [
    "?0"
  ],
  "sec-ch-ua-platform": [
    "\"Windows\""
  ],
  "origin": [
    "https://localhost:44390"
  ],
  "sec-fetch-site": [
    "same-origin"
  ],
  "sec-fetch-mode": [
    "cors"
  ],
  "sec-fetch-dest": [
    "empty"
  ]
} (3a8c4e55)
2021-10-13T13:50:10.6100650+07:00 4000002b-0007-ff00-b63f-84710c7967bb [INF] Body: {
  "payeeProxyId": "string",
  "payeeProxyType": "string",
  "payeeAccountNumber": "string",
  "payerAccountNumber": "string",
  "payerAccountName": "string",
  "payerName": "string",
  "sendingBankCode": "string",
  "receivingBankCode": "string",
  "amount": "string",
  "transactionId": "string",
  "transactionDateandTime": "2021-10-13T06:49:59.640Z",
  "billPaymentRef1": "9ED7KVQFHH",
  "billPaymentRef2": "AR10D95G8W",
  "billPaymentRef3": "AUZ",
  "currencyCode": "string",
  "channelCode": "string",
  "transactionType": "string"
} (b2b6a23b)
2021-10-13T13:50:10.6146729+07:00 4000002b-0007-ff00-b63f-84710c7967bb [INF] Host: localhost (0ee9ab49)
2021-10-13T13:50:10.6187860+07:00 4000002b-0007-ff00-b63f-84710c7967bb [INF] Client IP: ::1 (e950f482)
2021-10-13T13:55:09.3799680+07:00  [INF] Server arty:20352:9aa07ba3 successfully announced in 269.6509 ms (3b5ca34b)
2021-10-13T13:55:09.3898250+07:00  [INF] Server arty:20352:9aa07ba3 is starting the registered dispatchers: ServerWatchdog, ServerJobCancellationWatcher, ExpirationManager, CountersAggregator, Worker, DelayedJobScheduler, RecurringJobScheduler... (3b5ca34b)
2021-10-13T13:55:09.4244564+07:00  [INF] 3 servers were removed due to timeout (3b5ca34b)
2021-10-13T13:55:09.4722159+07:00  [INF] Server arty:20352:9aa07ba3 all the dispatchers started (3b5ca34b)
2021-10-13T13:55:09.6588103+07:00  [INF] Application started. Press Ctrl+C to shut down. (dcaefe54)
2021-10-13T13:55:09.6613912+07:00  [INF] Hosting environment: "Development" (c3307c92)
2021-10-13T13:55:09.6631050+07:00  [INF] Content root path: "C:\Users\Sahar\Documents\ohoapp\OhoApp" (b5d60022)
2021-10-13T13:55:09.7076977+07:00 4000001c-0003-ff00-b63f-84710c7967bb [INF] Header: {
  "Accept": [
    "text/html,application/xhtml+xml,application/xml;q=0.9,image/webp,image/apng,*/*;q=0.8,application/signed-exchange;v=b3;q=0.9"
  ],
  "Accept-Encoding": [
    "gzip, deflate, br"
  ],
  "Accept-Language": [
    "en-US,en;q=0.9"
  ],
  "Connection": [
    "close"
  ],
  "Host": [
    "localhost:44390"
  ],
  "User-Agent": [
    "Mozilla/5.0 (Windows NT 10.0; Win64; x64) AppleWebKit/537.36 (KHTML, like Gecko) Chrome/93.0.4577.82 Safari/537.36 Edg/93.0.961.52"
  ],
  "sec-ch-ua": [
    "\"Microsoft Edge\";v=\"93\", \" Not;A Brand\";v=\"99\", \"Chromium\";v=\"93\""
  ],
  "sec-ch-ua-mobile": [
    "?0"
  ],
  "sec-ch-ua-platform": [
    "\"Windows\""
  ],
  "upgrade-insecure-requests": [
    "1"
  ],
  "sec-fetch-site": [
    "none"
  ],
  "sec-fetch-mode": [
    "navigate"
  ],
  "sec-fetch-user": [
    "?1"
  ],
  "sec-fetch-dest": [
    "document"
  ]
} (77c6ecff)
2021-10-13T13:55:09.7263104+07:00 4000001c-0003-ff00-b63f-84710c7967bb [INF] Body:  (273944e2)
2021-10-13T13:55:09.7285953+07:00 4000001c-0003-ff00-b63f-84710c7967bb [INF] Host: localhost (0ee9ab49)
2021-10-13T13:55:09.7317223+07:00 4000001c-0003-ff00-b63f-84710c7967bb [INF] Client IP: ::1 (e950f482)
2021-10-13T13:55:17.4383452+07:00 40000025-0005-fe00-b63f-84710c7967bb [INF] Header: {
  "Accept": [
    "text/plain"
  ],
  "Accept-Encoding": [
    "gzip, deflate, br"
  ],
  "Accept-Language": [
    "en-US,en;q=0.9"
  ],
  "Connection": [
    "close"
  ],
  "Content-Length": [
    "540"
  ],
  "Content-Type": [
    "application/json"
  ],
  "Host": [
    "localhost:44390"
  ],
  "Referer": [
    "https://localhost:44390/swagger/index.html"
  ],
  "User-Agent": [
    "Mozilla/5.0 (Windows NT 10.0; Win64; x64) AppleWebKit/537.36 (KHTML, like Gecko) Chrome/93.0.4577.82 Safari/537.36 Edg/93.0.961.52"
  ],
  "sec-ch-ua": [
    "\"Microsoft Edge\";v=\"93\", \" Not;A Brand\";v=\"99\", \"Chromium\";v=\"93\""
  ],
  "sec-ch-ua-mobile": [
    "?0"
  ],
  "sec-ch-ua-platform": [
    "\"Windows\""
  ],
  "origin": [
    "https://localhost:44390"
  ],
  "sec-fetch-site": [
    "same-origin"
  ],
  "sec-fetch-mode": [
    "cors"
  ],
  "sec-fetch-dest": [
    "empty"
  ]
} (38a6215e)
2021-10-13T13:55:17.4544795+07:00 40000025-0005-fe00-b63f-84710c7967bb [INF] Body: {
  "payeeProxyId": "string",
  "payeeProxyType": "string",
  "payeeAccountNumber": "string",
  "payerAccountNumber": "string",
  "payerAccountName": "string",
  "payerName": "string",
  "sendingBankCode": "string",
  "receivingBankCode": "string",
  "amount": "string",
  "transactionId": "string",
  "transactionDateandTime": "2021-10-13T06:49:59.640Z",
  "billPaymentRef1": "9ED7KVQFHH",
  "billPaymentRef2": "AR10D95G8W",
  "billPaymentRef3": "AUZ",
  "currencyCode": "string",
  "channelCode": "string",
  "transactionType": "string"
} (b2b6a23b)
2021-10-13T13:55:17.4590869+07:00 40000025-0005-fe00-b63f-84710c7967bb [INF] Host: localhost (0ee9ab49)
2021-10-13T13:55:17.4629783+07:00 40000025-0005-fe00-b63f-84710c7967bb [INF] Client IP: ::1 (e950f482)
2021-10-13T13:56:49.4524665+07:00 40000033-0004-fe00-b63f-84710c7967bb [INF] Header: {
  "Accept": [
    "text/plain"
  ],
  "Accept-Encoding": [
    "gzip, deflate, br"
  ],
  "Accept-Language": [
    "en-US,en;q=0.9"
  ],
  "Authorization": [
    "bearer eyJhbGciOiJIUzI1NiIsInR5cCI6IkpXVCJ9.eyJodHRwOi8vc2NoZW1hcy54bWxzb2FwLm9yZy93cy8yMDA1LzA1L2lkZW50aXR5L2NsYWltcy9zaWQiOiI2NzRiZDZmYTYyNGU0YmZlOGQ3OWQzMjBkMmM4M2YxMyIsImh0dHA6Ly9zY2hlbWFzLnhtbHNvYXAub3JnL3dzLzIwMDUvMDUvaWRlbnRpdHkvY2xhaW1zL2VtYWlsYWRkcmVzcyI6InRlc3QxQGdtYWlsLmNvbSIsImh0dHA6Ly9zY2hlbWFzLnhtbHNvYXAub3JnL3dzLzIwMDUvMDUvaWRlbnRpdHkvY2xhaW1zL21vYmlsZXBob25lIjoiMDgxMjg0NDI3NyIsImh0dHA6Ly9zY2hlbWFzLnhtbHNvYXAub3JnL3dzLzIwMDUvMDUvaWRlbnRpdHkvY2xhaW1zL25hbWVpZGVudGlmaWVyIjoiMTIiLCJteWtleSI6Ik9ob0N1c3RvbWVyIiwiZXhwIjoxNjY1NjQzNjQ4fQ.5KEdyMU77JaDB2jW_PQfdmvjljFWqnjw3TcvnVp2DWs"
  ],
  "Connection": [
    "close"
  ],
  "Host": [
    "localhost:44390"
  ],
  "Referer": [
    "https://localhost:44390/swagger/index.html"
  ],
  "User-Agent": [
    "Mozilla/5.0 (Windows NT 10.0; Win64; x64) AppleWebKit/537.36 (KHTML, like Gecko) Chrome/93.0.4577.82 Safari/537.36 Edg/93.0.961.52"
  ],
  "sec-ch-ua": [
    "\"Microsoft Edge\";v=\"93\", \" Not;A Brand\";v=\"99\", \"Chromium\";v=\"93\""
  ],
  "sec-ch-ua-mobile": [
    "?0"
  ],
  "sec-ch-ua-platform": [
    "\"Windows\""
  ],
  "sec-fetch-site": [
    "same-origin"
  ],
  "sec-fetch-mode": [
    "cors"
  ],
  "sec-fetch-dest": [
    "empty"
  ]
} (245850fd)
2021-10-13T13:56:49.4565752+07:00 40000033-0004-fe00-b63f-84710c7967bb [INF] Body:  (273944e2)
2021-10-13T13:56:49.4593972+07:00 40000033-0004-fe00-b63f-84710c7967bb [INF] Host: localhost (0ee9ab49)
2021-10-13T13:56:49.4627629+07:00 40000033-0004-fe00-b63f-84710c7967bb [INF] Client IP: ::1 (e950f482)
2021-10-13T14:27:55.4504868+07:00  [INF] Server arty:33400:ac48c25f successfully announced in 349.9749 ms (3b5ca34b)
2021-10-13T14:27:55.4616779+07:00  [INF] Server arty:33400:ac48c25f is starting the registered dispatchers: ServerWatchdog, ServerJobCancellationWatcher, ExpirationManager, CountersAggregator, Worker, DelayedJobScheduler, RecurringJobScheduler... (3b5ca34b)
2021-10-13T14:27:55.5480363+07:00  [INF] Server arty:33400:ac48c25f all the dispatchers started (3b5ca34b)
2021-10-13T14:27:55.7392611+07:00  [INF] Application started. Press Ctrl+C to shut down. (dcaefe54)
2021-10-13T14:27:55.7421423+07:00  [INF] Hosting environment: "Development" (c3307c92)
2021-10-13T14:27:55.7440294+07:00  [INF] Content root path: "C:\Users\Sahar\Documents\ohoapp\OhoApp" (b5d60022)
2021-10-13T14:27:55.7878719+07:00 40000027-0001-ff00-b63f-84710c7967bb [INF] Header: {
  "Accept": [
    "text/html,application/xhtml+xml,application/xml;q=0.9,image/webp,image/apng,*/*;q=0.8,application/signed-exchange;v=b3;q=0.9"
  ],
  "Accept-Encoding": [
    "gzip, deflate, br"
  ],
  "Accept-Language": [
    "en-US,en;q=0.9"
  ],
  "Connection": [
    "close"
  ],
  "Host": [
    "localhost:44390"
  ],
  "User-Agent": [
    "Mozilla/5.0 (Windows NT 10.0; Win64; x64) AppleWebKit/537.36 (KHTML, like Gecko) Chrome/93.0.4577.82 Safari/537.36 Edg/93.0.961.52"
  ],
  "sec-ch-ua": [
    "\"Microsoft Edge\";v=\"93\", \" Not;A Brand\";v=\"99\", \"Chromium\";v=\"93\""
  ],
  "sec-ch-ua-mobile": [
    "?0"
  ],
  "sec-ch-ua-platform": [
    "\"Windows\""
  ],
  "upgrade-insecure-requests": [
    "1"
  ],
  "sec-fetch-site": [
    "none"
  ],
  "sec-fetch-mode": [
    "navigate"
  ],
  "sec-fetch-user": [
    "?1"
  ],
  "sec-fetch-dest": [
    "document"
  ]
} (77c6ecff)
2021-10-13T14:27:55.8062264+07:00 40000027-0001-ff00-b63f-84710c7967bb [INF] Body:  (273944e2)
2021-10-13T14:27:55.8085037+07:00 40000027-0001-ff00-b63f-84710c7967bb [INF] Host: localhost (0ee9ab49)
2021-10-13T14:27:55.8119915+07:00 40000027-0001-ff00-b63f-84710c7967bb [INF] Client IP: ::1 (e950f482)
2021-10-13T14:28:18.9966458+07:00 40000029-0001-ff00-b63f-84710c7967bb [INF] Header: {
  "Accept": [
    "text/plain"
  ],
  "Accept-Encoding": [
    "gzip, deflate, br"
  ],
  "Accept-Language": [
    "en-US,en;q=0.9"
  ],
  "Authorization": [
    "bearer eyJhbGciOiJIUzI1NiIsInR5cCI6IkpXVCJ9.eyJodHRwOi8vc2NoZW1hcy54bWxzb2FwLm9yZy93cy8yMDA1LzA1L2lkZW50aXR5L2NsYWltcy9zaWQiOiI2NzRiZDZmYTYyNGU0YmZlOGQ3OWQzMjBkMmM4M2YxMyIsImh0dHA6Ly9zY2hlbWFzLnhtbHNvYXAub3JnL3dzLzIwMDUvMDUvaWRlbnRpdHkvY2xhaW1zL2VtYWlsYWRkcmVzcyI6InRlc3QxQGdtYWlsLmNvbSIsImh0dHA6Ly9zY2hlbWFzLnhtbHNvYXAub3JnL3dzLzIwMDUvMDUvaWRlbnRpdHkvY2xhaW1zL21vYmlsZXBob25lIjoiMDgxMjg0NDI3NyIsImh0dHA6Ly9zY2hlbWFzLnhtbHNvYXAub3JnL3dzLzIwMDUvMDUvaWRlbnRpdHkvY2xhaW1zL25hbWVpZGVudGlmaWVyIjoiMTIiLCJteWtleSI6Ik9ob0N1c3RvbWVyIiwiZXhwIjoxNjY1NjQzNjQ4fQ.5KEdyMU77JaDB2jW_PQfdmvjljFWqnjw3TcvnVp2DWs"
  ],
  "Connection": [
    "close"
  ],
  "Content-Length": [
    "527"
  ],
  "Content-Type": [
    "application/json"
  ],
  "Host": [
    "localhost:44390"
  ],
  "Referer": [
    "https://localhost:44390/swagger/index.html"
  ],
  "User-Agent": [
    "Mozilla/5.0 (Windows NT 10.0; Win64; x64) AppleWebKit/537.36 (KHTML, like Gecko) Chrome/93.0.4577.82 Safari/537.36 Edg/93.0.961.52"
  ],
  "sec-ch-ua": [
    "\"Microsoft Edge\";v=\"93\", \" Not;A Brand\";v=\"99\", \"Chromium\";v=\"93\""
  ],
  "sec-ch-ua-mobile": [
    "?0"
  ],
  "sec-ch-ua-platform": [
    "\"Windows\""
  ],
  "origin": [
    "https://localhost:44390"
  ],
  "sec-fetch-site": [
    "same-origin"
  ],
  "sec-fetch-mode": [
    "cors"
  ],
  "sec-fetch-dest": [
    "empty"
  ]
} (46278291)
2021-10-13T14:28:19.0064235+07:00 40000029-0001-ff00-b63f-84710c7967bb [INF] Body: {
  "orderID": 316,
  "logID": 299,
  "distance": "7.8",
  "order_Type": 3,
  "reS_ID": 1,
  "customer": {
    "name": "Test",
    "phoneNumber": "0904502232"
  },
  "address": {
    "name": "Test",
    "location": "15.1890494,100.1367173",
    "address": "Test",
    "addressDetail": "Test",
    "comment": "Test"
  },
  "coupon_ID": 0,
  "paymentMethod": 1,
  "startTime": "10:00",
  "endTime": "10:30",
  "deliveryFee": 64,
  "items": [
    {
      "menuItem_ID": 10,
      "amount": 1,
      "comment": "string"
    }
  ]
} (04d5c13b)
2021-10-13T14:28:19.0094451+07:00 40000029-0001-ff00-b63f-84710c7967bb [INF] Host: localhost (0ee9ab49)
2021-10-13T14:28:19.0122976+07:00 40000029-0001-ff00-b63f-84710c7967bb [INF] Client IP: ::1 (e950f482)
2021-10-13T14:29:32.2851889+07:00  [INF] Server arty:18808:896af3e3 successfully announced in 250.5058 ms (3b5ca34b)
2021-10-13T14:29:32.2941529+07:00  [INF] Server arty:18808:896af3e3 is starting the registered dispatchers: ServerWatchdog, ServerJobCancellationWatcher, ExpirationManager, CountersAggregator, Worker, DelayedJobScheduler, RecurringJobScheduler... (3b5ca34b)
2021-10-13T14:29:32.3623203+07:00  [INF] Server arty:18808:896af3e3 all the dispatchers started (3b5ca34b)
2021-10-13T14:29:32.5485106+07:00  [INF] Application started. Press Ctrl+C to shut down. (dcaefe54)
2021-10-13T14:29:32.5515808+07:00  [INF] Hosting environment: "Development" (c3307c92)
2021-10-13T14:29:32.5536799+07:00  [INF] Content root path: "C:\Users\Sahar\Documents\ohoapp\OhoApp" (b5d60022)
2021-10-13T14:29:32.5953222+07:00 40000040-0000-ff00-b63f-84710c7967bb [INF] Header: {
  "Accept": [
    "text/html,application/xhtml+xml,application/xml;q=0.9,image/webp,image/apng,*/*;q=0.8,application/signed-exchange;v=b3;q=0.9"
  ],
  "Accept-Encoding": [
    "gzip, deflate, br"
  ],
  "Accept-Language": [
    "en-US,en;q=0.9"
  ],
  "Connection": [
    "close"
  ],
  "Host": [
    "localhost:44390"
  ],
  "User-Agent": [
    "Mozilla/5.0 (Windows NT 10.0; Win64; x64) AppleWebKit/537.36 (KHTML, like Gecko) Chrome/93.0.4577.82 Safari/537.36 Edg/93.0.961.52"
  ],
  "sec-ch-ua": [
    "\"Microsoft Edge\";v=\"93\", \" Not;A Brand\";v=\"99\", \"Chromium\";v=\"93\""
  ],
  "sec-ch-ua-mobile": [
    "?0"
  ],
  "sec-ch-ua-platform": [
    "\"Windows\""
  ],
  "upgrade-insecure-requests": [
    "1"
  ],
  "sec-fetch-site": [
    "none"
  ],
  "sec-fetch-mode": [
    "navigate"
  ],
  "sec-fetch-user": [
    "?1"
  ],
  "sec-fetch-dest": [
    "document"
  ]
} (77c6ecff)
2021-10-13T14:29:32.6136466+07:00 40000040-0000-ff00-b63f-84710c7967bb [INF] Body:  (273944e2)
2021-10-13T14:29:32.6159067+07:00 40000040-0000-ff00-b63f-84710c7967bb [INF] Host: localhost (0ee9ab49)
2021-10-13T14:29:32.6190388+07:00 40000040-0000-ff00-b63f-84710c7967bb [INF] Client IP: ::1 (e950f482)
2021-10-13T14:29:52.8959738+07:00  [INF] Server arty:27548:22fbbead successfully announced in 265.7777 ms (3b5ca34b)
2021-10-13T14:29:52.9041656+07:00  [INF] Server arty:27548:22fbbead is starting the registered dispatchers: ServerWatchdog, ServerJobCancellationWatcher, ExpirationManager, CountersAggregator, Worker, DelayedJobScheduler, RecurringJobScheduler... (3b5ca34b)
2021-10-13T14:29:52.9776270+07:00  [INF] Server arty:27548:22fbbead all the dispatchers started (3b5ca34b)
2021-10-13T14:29:53.1722532+07:00  [INF] Application started. Press Ctrl+C to shut down. (dcaefe54)
2021-10-13T14:29:53.1764756+07:00  [INF] Hosting environment: "Development" (c3307c92)
2021-10-13T14:29:53.1790027+07:00  [INF] Content root path: "C:\Users\Sahar\Documents\ohoapp\OhoApp" (b5d60022)
2021-10-13T14:29:53.2250770+07:00 40000030-0007-ff00-b63f-84710c7967bb [INF] Header: {
  "Accept": [
    "text/html,application/xhtml+xml,application/xml;q=0.9,image/webp,image/apng,*/*;q=0.8,application/signed-exchange;v=b3;q=0.9"
  ],
  "Accept-Encoding": [
    "gzip, deflate, br"
  ],
  "Accept-Language": [
    "en-US,en;q=0.9"
  ],
  "Connection": [
    "close"
  ],
  "Host": [
    "localhost:44390"
  ],
  "User-Agent": [
    "Mozilla/5.0 (Windows NT 10.0; Win64; x64) AppleWebKit/537.36 (KHTML, like Gecko) Chrome/93.0.4577.82 Safari/537.36 Edg/93.0.961.52"
  ],
  "sec-ch-ua": [
    "\"Microsoft Edge\";v=\"93\", \" Not;A Brand\";v=\"99\", \"Chromium\";v=\"93\""
  ],
  "sec-ch-ua-mobile": [
    "?0"
  ],
  "sec-ch-ua-platform": [
    "\"Windows\""
  ],
  "upgrade-insecure-requests": [
    "1"
  ],
  "sec-fetch-site": [
    "none"
  ],
  "sec-fetch-mode": [
    "navigate"
  ],
  "sec-fetch-user": [
    "?1"
  ],
  "sec-fetch-dest": [
    "document"
  ]
} (77c6ecff)
2021-10-13T14:29:53.2430991+07:00 40000030-0007-ff00-b63f-84710c7967bb [INF] Body:  (273944e2)
2021-10-13T14:29:53.2452701+07:00 40000030-0007-ff00-b63f-84710c7967bb [INF] Host: localhost (0ee9ab49)
2021-10-13T14:29:53.2484811+07:00 40000030-0007-ff00-b63f-84710c7967bb [INF] Client IP: ::1 (e950f482)
2021-10-13T14:30:14.7716912+07:00 40000037-0004-fe00-b63f-84710c7967bb [INF] Header: {
  "Accept": [
    "text/plain"
  ],
  "Accept-Encoding": [
    "gzip, deflate, br"
  ],
  "Accept-Language": [
    "en-US,en;q=0.9"
  ],
  "Authorization": [
    "bearer eyJhbGciOiJIUzI1NiIsInR5cCI6IkpXVCJ9.eyJodHRwOi8vc2NoZW1hcy54bWxzb2FwLm9yZy93cy8yMDA1LzA1L2lkZW50aXR5L2NsYWltcy9zaWQiOiI2NzRiZDZmYTYyNGU0YmZlOGQ3OWQzMjBkMmM4M2YxMyIsImh0dHA6Ly9zY2hlbWFzLnhtbHNvYXAub3JnL3dzLzIwMDUvMDUvaWRlbnRpdHkvY2xhaW1zL2VtYWlsYWRkcmVzcyI6InRlc3QxQGdtYWlsLmNvbSIsImh0dHA6Ly9zY2hlbWFzLnhtbHNvYXAub3JnL3dzLzIwMDUvMDUvaWRlbnRpdHkvY2xhaW1zL21vYmlsZXBob25lIjoiMDgxMjg0NDI3NyIsImh0dHA6Ly9zY2hlbWFzLnhtbHNvYXAub3JnL3dzLzIwMDUvMDUvaWRlbnRpdHkvY2xhaW1zL25hbWVpZGVudGlmaWVyIjoiMTIiLCJteWtleSI6Ik9ob0N1c3RvbWVyIiwiZXhwIjoxNjY1NjQzNjQ4fQ.5KEdyMU77JaDB2jW_PQfdmvjljFWqnjw3TcvnVp2DWs"
  ],
  "Connection": [
    "close"
  ],
  "Content-Length": [
    "527"
  ],
  "Content-Type": [
    "application/json"
  ],
  "Host": [
    "localhost:44390"
  ],
  "Referer": [
    "https://localhost:44390/swagger/index.html"
  ],
  "User-Agent": [
    "Mozilla/5.0 (Windows NT 10.0; Win64; x64) AppleWebKit/537.36 (KHTML, like Gecko) Chrome/93.0.4577.82 Safari/537.36 Edg/93.0.961.52"
  ],
  "sec-ch-ua": [
    "\"Microsoft Edge\";v=\"93\", \" Not;A Brand\";v=\"99\", \"Chromium\";v=\"93\""
  ],
  "sec-ch-ua-mobile": [
    "?0"
  ],
  "sec-ch-ua-platform": [
    "\"Windows\""
  ],
  "origin": [
    "https://localhost:44390"
  ],
  "sec-fetch-site": [
    "same-origin"
  ],
  "sec-fetch-mode": [
    "cors"
  ],
  "sec-fetch-dest": [
    "empty"
  ]
} (46278291)
2021-10-13T14:30:14.7825264+07:00 40000037-0004-fe00-b63f-84710c7967bb [INF] Body: {
  "orderID": 316,
  "logID": 299,
  "distance": "7.8",
  "order_Type": 3,
  "reS_ID": 1,
  "customer": {
    "name": "Test",
    "phoneNumber": "0904502232"
  },
  "address": {
    "name": "Test",
    "location": "15.1890494,100.1367173",
    "address": "Test",
    "addressDetail": "Test",
    "comment": "Test"
  },
  "coupon_ID": 0,
  "paymentMethod": 1,
  "startTime": "10:00",
  "endTime": "10:30",
  "deliveryFee": 64,
  "items": [
    {
      "menuItem_ID": 10,
      "amount": 1,
      "comment": "string"
    }
  ]
} (04d5c13b)
2021-10-13T14:30:14.7858564+07:00 40000037-0004-fe00-b63f-84710c7967bb [INF] Host: localhost (0ee9ab49)
2021-10-13T14:30:14.7890215+07:00 40000037-0004-fe00-b63f-84710c7967bb [INF] Client IP: ::1 (e950f482)
2021-10-13T14:34:41.7170688+07:00  [INF] Server arty:17532:5752a569 successfully announced in 292.4122 ms (3b5ca34b)
2021-10-13T14:34:41.7263089+07:00  [INF] Server arty:17532:5752a569 is starting the registered dispatchers: ServerWatchdog, ServerJobCancellationWatcher, ExpirationManager, CountersAggregator, Worker, DelayedJobScheduler, RecurringJobScheduler... (3b5ca34b)
2021-10-13T14:34:41.7596799+07:00  [INF] 3 servers were removed due to timeout (3b5ca34b)
2021-10-13T14:34:41.8011981+07:00  [INF] Server arty:17532:5752a569 all the dispatchers started (3b5ca34b)
2021-10-13T14:34:42.0432766+07:00  [INF] Application started. Press Ctrl+C to shut down. (dcaefe54)
2021-10-13T14:34:42.0461004+07:00  [INF] Hosting environment: "Development" (c3307c92)
2021-10-13T14:34:42.0482238+07:00  [INF] Content root path: "C:\Users\Sahar\Documents\ohoapp\OhoApp" (b5d60022)
2021-10-13T14:34:42.0978457+07:00 4000000c-0001-fe00-b63f-84710c7967bb [INF] Header: {
  "Accept": [
    "text/html,application/xhtml+xml,application/xml;q=0.9,image/webp,image/apng,*/*;q=0.8,application/signed-exchange;v=b3;q=0.9"
  ],
  "Accept-Encoding": [
    "gzip, deflate, br"
  ],
  "Accept-Language": [
    "en-US,en;q=0.9"
  ],
  "Connection": [
    "close"
  ],
  "Host": [
    "localhost:44390"
  ],
  "User-Agent": [
    "Mozilla/5.0 (Windows NT 10.0; Win64; x64) AppleWebKit/537.36 (KHTML, like Gecko) Chrome/93.0.4577.82 Safari/537.36 Edg/93.0.961.52"
  ],
  "sec-ch-ua": [
    "\"Microsoft Edge\";v=\"93\", \" Not;A Brand\";v=\"99\", \"Chromium\";v=\"93\""
  ],
  "sec-ch-ua-mobile": [
    "?0"
  ],
  "sec-ch-ua-platform": [
    "\"Windows\""
  ],
  "upgrade-insecure-requests": [
    "1"
  ],
  "sec-fetch-site": [
    "none"
  ],
  "sec-fetch-mode": [
    "navigate"
  ],
  "sec-fetch-user": [
    "?1"
  ],
  "sec-fetch-dest": [
    "document"
  ]
} (77c6ecff)
2021-10-13T14:34:42.1199336+07:00 4000000c-0001-fe00-b63f-84710c7967bb [INF] Body:  (273944e2)
2021-10-13T14:34:42.1221728+07:00 4000000c-0001-fe00-b63f-84710c7967bb [INF] Host: localhost (0ee9ab49)
2021-10-13T14:34:42.1256557+07:00 4000000c-0001-fe00-b63f-84710c7967bb [INF] Client IP: ::1 (e950f482)
2021-10-13T14:35:03.3506568+07:00 4000000e-0001-fe00-b63f-84710c7967bb [INF] Header: {
  "Accept": [
    "text/plain"
  ],
  "Accept-Encoding": [
    "gzip, deflate, br"
  ],
  "Accept-Language": [
    "en-US,en;q=0.9"
  ],
  "Authorization": [
    "bearer eyJhbGciOiJIUzI1NiIsInR5cCI6IkpXVCJ9.eyJodHRwOi8vc2NoZW1hcy54bWxzb2FwLm9yZy93cy8yMDA1LzA1L2lkZW50aXR5L2NsYWltcy9zaWQiOiI2NzRiZDZmYTYyNGU0YmZlOGQ3OWQzMjBkMmM4M2YxMyIsImh0dHA6Ly9zY2hlbWFzLnhtbHNvYXAub3JnL3dzLzIwMDUvMDUvaWRlbnRpdHkvY2xhaW1zL2VtYWlsYWRkcmVzcyI6InRlc3QxQGdtYWlsLmNvbSIsImh0dHA6Ly9zY2hlbWFzLnhtbHNvYXAub3JnL3dzLzIwMDUvMDUvaWRlbnRpdHkvY2xhaW1zL21vYmlsZXBob25lIjoiMDgxMjg0NDI3NyIsImh0dHA6Ly9zY2hlbWFzLnhtbHNvYXAub3JnL3dzLzIwMDUvMDUvaWRlbnRpdHkvY2xhaW1zL25hbWVpZGVudGlmaWVyIjoiMTIiLCJteWtleSI6Ik9ob0N1c3RvbWVyIiwiZXhwIjoxNjY1NjQzNjQ4fQ.5KEdyMU77JaDB2jW_PQfdmvjljFWqnjw3TcvnVp2DWs"
  ],
  "Connection": [
    "close"
  ],
  "Content-Length": [
    "15"
  ],
  "Content-Type": [
    "application/json"
  ],
  "Host": [
    "localhost:44390"
  ],
  "Referer": [
    "https://localhost:44390/swagger/index.html"
  ],
  "User-Agent": [
    "Mozilla/5.0 (Windows NT 10.0; Win64; x64) AppleWebKit/537.36 (KHTML, like Gecko) Chrome/93.0.4577.82 Safari/537.36 Edg/93.0.961.52"
  ],
  "sec-ch-ua": [
    "\"Microsoft Edge\";v=\"93\", \" Not;A Brand\";v=\"99\", \"Chromium\";v=\"93\""
  ],
  "sec-ch-ua-mobile": [
    "?0"
  ],
  "sec-ch-ua-platform": [
    "\"Windows\""
  ],
  "origin": [
    "https://localhost:44390"
  ],
  "sec-fetch-site": [
    "same-origin"
  ],
  "sec-fetch-mode": [
    "cors"
  ],
  "sec-fetch-dest": [
    "empty"
  ]
} (fe1f2aae)
2021-10-13T14:35:03.3611295+07:00 4000000e-0001-fe00-b63f-84710c7967bb [INF] Body: {
  "id": 237
} (00b746cf)
2021-10-13T14:35:03.3638914+07:00 4000000e-0001-fe00-b63f-84710c7967bb [INF] Host: localhost (0ee9ab49)
2021-10-13T14:35:03.3671302+07:00 4000000e-0001-fe00-b63f-84710c7967bb [INF] Client IP: ::1 (e950f482)
2021-10-13T14:35:35.3452152+07:00 40000039-0004-fe00-b63f-84710c7967bb [INF] Header: {
  "Accept": [
    "text/plain"
  ],
  "Accept-Encoding": [
    "gzip, deflate, br"
  ],
  "Accept-Language": [
    "en-US,en;q=0.9"
  ],
  "Authorization": [
    "bearer eyJhbGciOiJIUzI1NiIsInR5cCI6IkpXVCJ9.eyJodHRwOi8vc2NoZW1hcy54bWxzb2FwLm9yZy93cy8yMDA1LzA1L2lkZW50aXR5L2NsYWltcy9zaWQiOiI2NzRiZDZmYTYyNGU0YmZlOGQ3OWQzMjBkMmM4M2YxMyIsImh0dHA6Ly9zY2hlbWFzLnhtbHNvYXAub3JnL3dzLzIwMDUvMDUvaWRlbnRpdHkvY2xhaW1zL2VtYWlsYWRkcmVzcyI6InRlc3QxQGdtYWlsLmNvbSIsImh0dHA6Ly9zY2hlbWFzLnhtbHNvYXAub3JnL3dzLzIwMDUvMDUvaWRlbnRpdHkvY2xhaW1zL21vYmlsZXBob25lIjoiMDgxMjg0NDI3NyIsImh0dHA6Ly9zY2hlbWFzLnhtbHNvYXAub3JnL3dzLzIwMDUvMDUvaWRlbnRpdHkvY2xhaW1zL25hbWVpZGVudGlmaWVyIjoiMTIiLCJteWtleSI6Ik9ob0N1c3RvbWVyIiwiZXhwIjoxNjY1NjQzNjQ4fQ.5KEdyMU77JaDB2jW_PQfdmvjljFWqnjw3TcvnVp2DWs"
  ],
  "Connection": [
    "close"
  ],
  "Content-Length": [
    "15"
  ],
  "Content-Type": [
    "application/json"
  ],
  "Host": [
    "localhost:44390"
  ],
  "Referer": [
    "https://localhost:44390/swagger/index.html"
  ],
  "User-Agent": [
    "Mozilla/5.0 (Windows NT 10.0; Win64; x64) AppleWebKit/537.36 (KHTML, like Gecko) Chrome/93.0.4577.82 Safari/537.36 Edg/93.0.961.52"
  ],
  "sec-ch-ua": [
    "\"Microsoft Edge\";v=\"93\", \" Not;A Brand\";v=\"99\", \"Chromium\";v=\"93\""
  ],
  "sec-ch-ua-mobile": [
    "?0"
  ],
  "sec-ch-ua-platform": [
    "\"Windows\""
  ],
  "origin": [
    "https://localhost:44390"
  ],
  "sec-fetch-site": [
    "same-origin"
  ],
  "sec-fetch-mode": [
    "cors"
  ],
  "sec-fetch-dest": [
    "empty"
  ]
} (fe1f2aae)
2021-10-13T14:35:35.3675396+07:00 40000039-0004-fe00-b63f-84710c7967bb [INF] Body: {
  "id": 237
} (00b746cf)
2021-10-13T14:35:35.3711916+07:00 40000039-0004-fe00-b63f-84710c7967bb [INF] Host: localhost (0ee9ab49)
2021-10-13T14:35:35.3749565+07:00 40000039-0004-fe00-b63f-84710c7967bb [INF] Client IP: ::1 (e950f482)
2021-10-13T14:36:21.3909192+07:00 4000000f-0006-fd00-b63f-84710c7967bb [INF] Header: {
  "Accept": [
    "text/plain"
  ],
  "Accept-Encoding": [
    "gzip, deflate, br"
  ],
  "Accept-Language": [
    "en-US,en;q=0.9"
  ],
  "Authorization": [
    "bearer eyJhbGciOiJIUzI1NiIsInR5cCI6IkpXVCJ9.eyJodHRwOi8vc2NoZW1hcy54bWxzb2FwLm9yZy93cy8yMDA1LzA1L2lkZW50aXR5L2NsYWltcy9zaWQiOiI2NzRiZDZmYTYyNGU0YmZlOGQ3OWQzMjBkMmM4M2YxMyIsImh0dHA6Ly9zY2hlbWFzLnhtbHNvYXAub3JnL3dzLzIwMDUvMDUvaWRlbnRpdHkvY2xhaW1zL2VtYWlsYWRkcmVzcyI6InRlc3QxQGdtYWlsLmNvbSIsImh0dHA6Ly9zY2hlbWFzLnhtbHNvYXAub3JnL3dzLzIwMDUvMDUvaWRlbnRpdHkvY2xhaW1zL21vYmlsZXBob25lIjoiMDgxMjg0NDI3NyIsImh0dHA6Ly9zY2hlbWFzLnhtbHNvYXAub3JnL3dzLzIwMDUvMDUvaWRlbnRpdHkvY2xhaW1zL25hbWVpZGVudGlmaWVyIjoiMTIiLCJteWtleSI6Ik9ob0N1c3RvbWVyIiwiZXhwIjoxNjY1NjQzNjQ4fQ.5KEdyMU77JaDB2jW_PQfdmvjljFWqnjw3TcvnVp2DWs"
  ],
  "Connection": [
    "close"
  ],
  "Content-Length": [
    "15"
  ],
  "Content-Type": [
    "application/json"
  ],
  "Host": [
    "localhost:44390"
  ],
  "Referer": [
    "https://localhost:44390/swagger/index.html"
  ],
  "User-Agent": [
    "Mozilla/5.0 (Windows NT 10.0; Win64; x64) AppleWebKit/537.36 (KHTML, like Gecko) Chrome/93.0.4577.82 Safari/537.36 Edg/93.0.961.52"
  ],
  "sec-ch-ua": [
    "\"Microsoft Edge\";v=\"93\", \" Not;A Brand\";v=\"99\", \"Chromium\";v=\"93\""
  ],
  "sec-ch-ua-mobile": [
    "?0"
  ],
  "sec-ch-ua-platform": [
    "\"Windows\""
  ],
  "origin": [
    "https://localhost:44390"
  ],
  "sec-fetch-site": [
    "same-origin"
  ],
  "sec-fetch-mode": [
    "cors"
  ],
  "sec-fetch-dest": [
    "empty"
  ]
} (fe1f2aae)
2021-10-13T14:36:21.3954950+07:00 4000000f-0006-fd00-b63f-84710c7967bb [INF] Body: {
  "id": 235
} (81e120f3)
2021-10-13T14:36:21.3986387+07:00 4000000f-0006-fd00-b63f-84710c7967bb [INF] Host: localhost (0ee9ab49)
2021-10-13T14:36:21.4019112+07:00 4000000f-0006-fd00-b63f-84710c7967bb [INF] Client IP: ::1 (e950f482)
2021-10-13T14:36:46.8606409+07:00 40000045-0000-ff00-b63f-84710c7967bb [INF] Header: {
  "Accept": [
    "text/plain"
  ],
  "Accept-Encoding": [
    "gzip, deflate, br"
  ],
  "Accept-Language": [
    "en-US,en;q=0.9"
  ],
  "Authorization": [
    "bearer eyJhbGciOiJIUzI1NiIsInR5cCI6IkpXVCJ9.eyJodHRwOi8vc2NoZW1hcy54bWxzb2FwLm9yZy93cy8yMDA1LzA1L2lkZW50aXR5L2NsYWltcy9zaWQiOiI2NzRiZDZmYTYyNGU0YmZlOGQ3OWQzMjBkMmM4M2YxMyIsImh0dHA6Ly9zY2hlbWFzLnhtbHNvYXAub3JnL3dzLzIwMDUvMDUvaWRlbnRpdHkvY2xhaW1zL2VtYWlsYWRkcmVzcyI6InRlc3QxQGdtYWlsLmNvbSIsImh0dHA6Ly9zY2hlbWFzLnhtbHNvYXAub3JnL3dzLzIwMDUvMDUvaWRlbnRpdHkvY2xhaW1zL21vYmlsZXBob25lIjoiMDgxMjg0NDI3NyIsImh0dHA6Ly9zY2hlbWFzLnhtbHNvYXAub3JnL3dzLzIwMDUvMDUvaWRlbnRpdHkvY2xhaW1zL25hbWVpZGVudGlmaWVyIjoiMTIiLCJteWtleSI6Ik9ob0N1c3RvbWVyIiwiZXhwIjoxNjY1NjQzNjQ4fQ.5KEdyMU77JaDB2jW_PQfdmvjljFWqnjw3TcvnVp2DWs"
  ],
  "Connection": [
    "close"
  ],
  "Host": [
    "localhost:44390"
  ],
  "Referer": [
    "https://localhost:44390/swagger/index.html"
  ],
  "User-Agent": [
    "Mozilla/5.0 (Windows NT 10.0; Win64; x64) AppleWebKit/537.36 (KHTML, like Gecko) Chrome/93.0.4577.82 Safari/537.36 Edg/93.0.961.52"
  ],
  "sec-ch-ua": [
    "\"Microsoft Edge\";v=\"93\", \" Not;A Brand\";v=\"99\", \"Chromium\";v=\"93\""
  ],
  "sec-ch-ua-mobile": [
    "?0"
  ],
  "sec-ch-ua-platform": [
    "\"Windows\""
  ],
  "sec-fetch-site": [
    "same-origin"
  ],
  "sec-fetch-mode": [
    "cors"
  ],
  "sec-fetch-dest": [
    "empty"
  ]
} (245850fd)
2021-10-13T14:36:46.8634564+07:00 40000045-0000-ff00-b63f-84710c7967bb [INF] Body:  (273944e2)
2021-10-13T14:36:46.8660642+07:00 40000045-0000-ff00-b63f-84710c7967bb [INF] Host: localhost (0ee9ab49)
2021-10-13T14:36:46.8682208+07:00 40000045-0000-ff00-b63f-84710c7967bb [INF] Client IP: ::1 (e950f482)
