2021-10-10T22:18:12.3394150+07:00  [INF] Server arty:22764:32a6cdde successfully announced in 328.1742 ms (3b5ca34b)
2021-10-10T22:18:12.3488494+07:00  [INF] Server arty:22764:32a6cdde is starting the registered dispatchers: ServerWatchdog, ServerJobCancellationWatcher, ExpirationManager, CountersAggregator, Worker, DelayedJobScheduler, RecurringJobScheduler... (3b5ca34b)
2021-10-10T22:18:12.4422082+07:00  [INF] Server arty:22764:32a6cdde all the dispatchers started (3b5ca34b)
2021-10-10T22:18:12.6439781+07:00  [INF] Application started. Press Ctrl+C to shut down. (dcaefe54)
2021-10-10T22:18:12.6468783+07:00  [INF] Hosting environment: "Development" (c3307c92)
2021-10-10T22:18:12.6491247+07:00  [INF] Content root path: "C:\Users\Sahar\Documents\ohoapp\OhoApp" (b5d60022)
2021-10-10T22:18:12.6954224+07:00 40000094-0000-fe00-b63f-84710c7967bb [INF] Header: {
  "Accept": [
    "text/html,application/xhtml+xml,application/xml;q=0.9,image/webp,image/apng,*/*;q=0.8,application/signed-exchange;v=b3;q=0.9"
  ],
  "Accept-Encoding": [
    "gzip, deflate, br"
  ],
  "Accept-Language": [
    "en-US,en;q=0.9"
  ],
  "Connection": [
    "close"
  ],
  "Host": [
    "localhost:44390"
  ],
  "User-Agent": [
    "Mozilla/5.0 (Windows NT 10.0; Win64; x64) AppleWebKit/537.36 (KHTML, like Gecko) Chrome/93.0.4577.82 Safari/537.36 Edg/93.0.961.52"
  ],
  "sec-ch-ua": [
    "\"Microsoft Edge\";v=\"93\", \" Not;A Brand\";v=\"99\", \"Chromium\";v=\"93\""
  ],
  "sec-ch-ua-mobile": [
    "?0"
  ],
  "sec-ch-ua-platform": [
    "\"Windows\""
  ],
  "upgrade-insecure-requests": [
    "1"
  ],
  "sec-fetch-site": [
    "none"
  ],
  "sec-fetch-mode": [
    "navigate"
  ],
  "sec-fetch-user": [
    "?1"
  ],
  "sec-fetch-dest": [
    "document"
  ]
} (77c6ecff)
2021-10-10T22:18:12.7167633+07:00 40000094-0000-fe00-b63f-84710c7967bb [INF] Body:  (273944e2)
2021-10-10T22:18:12.7195631+07:00 40000094-0000-fe00-b63f-84710c7967bb [INF] Host: localhost (0ee9ab49)
2021-10-10T22:18:12.7239694+07:00 40000094-0000-fe00-b63f-84710c7967bb [INF] Client IP: ::1 (e950f482)
2021-10-10T22:19:35.6836236+07:00 400000c9-0005-ff00-b63f-84710c7967bb [INF] Header: {
  "Accept": [
    "text/plain"
  ],
  "Accept-Encoding": [
    "gzip, deflate, br"
  ],
  "Accept-Language": [
    "en-US,en;q=0.9"
  ],
  "Connection": [
    "close"
  ],
  "Content-Length": [
    "318"
  ],
  "Content-Type": [
    "application/json"
  ],
  "Host": [
    "localhost:44390"
  ],
  "Referer": [
    "https://localhost:44390/swagger/index.html"
  ],
  "User-Agent": [
    "Mozilla/5.0 (Windows NT 10.0; Win64; x64) AppleWebKit/537.36 (KHTML, like Gecko) Chrome/93.0.4577.82 Safari/537.36 Edg/93.0.961.52"
  ],
  "sec-ch-ua": [
    "\"Microsoft Edge\";v=\"93\", \" Not;A Brand\";v=\"99\", \"Chromium\";v=\"93\""
  ],
  "sec-ch-ua-mobile": [
    "?0"
  ],
  "sec-ch-ua-platform": [
    "\"Windows\""
  ],
  "origin": [
    "https://localhost:44390"
  ],
  "sec-fetch-site": [
    "same-origin"
  ],
  "sec-fetch-mode": [
    "cors"
  ],
  "sec-fetch-dest": [
    "empty"
  ]
} (8c6c1163)
2021-10-10T22:19:35.7030361+07:00 400000c9-0005-ff00-b63f-84710c7967bb [INF] Body: {
  "serviceType": "MOTORCYCLE",
  "distance": "12653.957",
  "restaurantInfo": {
    "restaurantID": "10"
  },
  "customerInfo": {
    "customerName": "mp4 dev",
    "customerMobilePhone": "0634454666",
    "customerAddress": "test",
    "location": {
      "lat": "15.1890597",
      "lng": "100.1367275"
    }
  }
} (34f4fcbd)
2021-10-10T22:19:35.7070903+07:00 400000c9-0005-ff00-b63f-84710c7967bb [INF] Host: localhost (0ee9ab49)
2021-10-10T22:19:35.7102874+07:00 400000c9-0005-ff00-b63f-84710c7967bb [INF] Client IP: ::1 (e950f482)
2021-10-10T22:19:48.9274926+07:00 40000031-0006-fd00-b63f-84710c7967bb [INF] Header: {
  "Accept": [
    "*/*"
  ],
  "Accept-Encoding": [
    "gzip, deflate, br"
  ],
  "Connection": [
    "keep-alive"
  ],
  "Content-Length": [
    "64"
  ],
  "Content-Type": [
    "application/json"
  ],
  "Host": [
    "localhost:44390"
  ],
  "User-Agent": [
    "PostmanRuntime/7.28.4"
  ],
  "Postman-Token": [
    "5cafffdd-26e0-43da-bf5f-0e6520271afd"
  ]
} (78ce1c54)
2021-10-10T22:19:48.9318708+07:00 40000031-0006-fd00-b63f-84710c7967bb [INF] Body: {
  "Username": "test1@gmail.com",
  "password": "test1150"
} (a0131dbe)
2021-10-10T22:19:48.9351179+07:00 40000031-0006-fd00-b63f-84710c7967bb [INF] Host: localhost (0ee9ab49)
2021-10-10T22:19:48.9385499+07:00 40000031-0006-fd00-b63f-84710c7967bb [INF] Client IP: ::1 (e950f482)
2021-10-10T22:19:59.5713337+07:00 40000096-0000-fe00-b63f-84710c7967bb [INF] Header: {
  "Accept": [
    "text/plain"
  ],
  "Accept-Encoding": [
    "gzip, deflate, br"
  ],
  "Accept-Language": [
    "en-US,en;q=0.9"
  ],
  "Authorization": [
    "bearer eyJhbGciOiJIUzI1NiIsInR5cCI6IkpXVCJ9.eyJodHRwOi8vc2NoZW1hcy54bWxzb2FwLm9yZy93cy8yMDA1LzA1L2lkZW50aXR5L2NsYWltcy9zaWQiOiIwYjVhODdkZTc0NmE0NmQ4YWI4MzZkYTAzODQ1MWMwOCIsImh0dHA6Ly9zY2hlbWFzLnhtbHNvYXAub3JnL3dzLzIwMDUvMDUvaWRlbnRpdHkvY2xhaW1zL2VtYWlsYWRkcmVzcyI6InRlc3QxQGdtYWlsLmNvbSIsImh0dHA6Ly9zY2hlbWFzLnhtbHNvYXAub3JnL3dzLzIwMDUvMDUvaWRlbnRpdHkvY2xhaW1zL21vYmlsZXBob25lIjoiMDgxMjg0NDI3NyIsImh0dHA6Ly9zY2hlbWFzLnhtbHNvYXAub3JnL3dzLzIwMDUvMDUvaWRlbnRpdHkvY2xhaW1zL25hbWVpZGVudGlmaWVyIjoiMTIiLCJteWtleSI6Ik9ob0N1c3RvbWVyIiwiZXhwIjoxNjY1NDE1MTg5fQ.LqUxJfNFahblWL6AI5rxZpD1FxhO2omqfDiQPHQXbG0"
  ],
  "Connection": [
    "close"
  ],
  "Content-Length": [
    "318"
  ],
  "Content-Type": [
    "application/json"
  ],
  "Host": [
    "localhost:44390"
  ],
  "Referer": [
    "https://localhost:44390/swagger/index.html"
  ],
  "User-Agent": [
    "Mozilla/5.0 (Windows NT 10.0; Win64; x64) AppleWebKit/537.36 (KHTML, like Gecko) Chrome/93.0.4577.82 Safari/537.36 Edg/93.0.961.52"
  ],
  "sec-ch-ua": [
    "\"Microsoft Edge\";v=\"93\", \" Not;A Brand\";v=\"99\", \"Chromium\";v=\"93\""
  ],
  "sec-ch-ua-mobile": [
    "?0"
  ],
  "sec-ch-ua-platform": [
    "\"Windows\""
  ],
  "origin": [
    "https://localhost:44390"
  ],
  "sec-fetch-site": [
    "same-origin"
  ],
  "sec-fetch-mode": [
    "cors"
  ],
  "sec-fetch-dest": [
    "empty"
  ]
} (347a3387)
2021-10-10T22:19:59.5760329+07:00 40000096-0000-fe00-b63f-84710c7967bb [INF] Body: {
  "serviceType": "MOTORCYCLE",
  "distance": "12653.957",
  "restaurantInfo": {
    "restaurantID": "10"
  },
  "customerInfo": {
    "customerName": "mp4 dev",
    "customerMobilePhone": "0634454666",
    "customerAddress": "test",
    "location": {
      "lat": "15.1890597",
      "lng": "100.1367275"
    }
  }
} (34f4fcbd)
2021-10-10T22:19:59.5791064+07:00 40000096-0000-fe00-b63f-84710c7967bb [INF] Host: localhost (0ee9ab49)
2021-10-10T22:19:59.5826501+07:00 40000096-0000-fe00-b63f-84710c7967bb [INF] Client IP: ::1 (e950f482)
2021-10-10T22:20:19.9689482+07:00 4000004b-0002-fd00-b63f-84710c7967bb [INF] Header: {
  "Accept": [
    "text/plain"
  ],
  "Accept-Encoding": [
    "gzip, deflate, br"
  ],
  "Accept-Language": [
    "en-US,en;q=0.9"
  ],
  "Authorization": [
    "bearer eyJhbGciOiJIUzI1NiIsInR5cCI6IkpXVCJ9.eyJodHRwOi8vc2NoZW1hcy54bWxzb2FwLm9yZy93cy8yMDA1LzA1L2lkZW50aXR5L2NsYWltcy9zaWQiOiIwYjVhODdkZTc0NmE0NmQ4YWI4MzZkYTAzODQ1MWMwOCIsImh0dHA6Ly9zY2hlbWFzLnhtbHNvYXAub3JnL3dzLzIwMDUvMDUvaWRlbnRpdHkvY2xhaW1zL2VtYWlsYWRkcmVzcyI6InRlc3QxQGdtYWlsLmNvbSIsImh0dHA6Ly9zY2hlbWFzLnhtbHNvYXAub3JnL3dzLzIwMDUvMDUvaWRlbnRpdHkvY2xhaW1zL21vYmlsZXBob25lIjoiMDgxMjg0NDI3NyIsImh0dHA6Ly9zY2hlbWFzLnhtbHNvYXAub3JnL3dzLzIwMDUvMDUvaWRlbnRpdHkvY2xhaW1zL25hbWVpZGVudGlmaWVyIjoiMTIiLCJteWtleSI6Ik9ob0N1c3RvbWVyIiwiZXhwIjoxNjY1NDE1MTg5fQ.LqUxJfNFahblWL6AI5rxZpD1FxhO2omqfDiQPHQXbG0"
  ],
  "Connection": [
    "close"
  ],
  "Content-Length": [
    "318"
  ],
  "Content-Type": [
    "application/json"
  ],
  "Host": [
    "localhost:44390"
  ],
  "Referer": [
    "https://localhost:44390/swagger/index.html"
  ],
  "User-Agent": [
    "Mozilla/5.0 (Windows NT 10.0; Win64; x64) AppleWebKit/537.36 (KHTML, like Gecko) Chrome/93.0.4577.82 Safari/537.36 Edg/93.0.961.52"
  ],
  "sec-ch-ua": [
    "\"Microsoft Edge\";v=\"93\", \" Not;A Brand\";v=\"99\", \"Chromium\";v=\"93\""
  ],
  "sec-ch-ua-mobile": [
    "?0"
  ],
  "sec-ch-ua-platform": [
    "\"Windows\""
  ],
  "origin": [
    "https://localhost:44390"
  ],
  "sec-fetch-site": [
    "same-origin"
  ],
  "sec-fetch-mode": [
    "cors"
  ],
  "sec-fetch-dest": [
    "empty"
  ]
} (347a3387)
2021-10-10T22:20:19.9737789+07:00 4000004b-0002-fd00-b63f-84710c7967bb [INF] Body: {
  "serviceType": "MOTORCYCLE",
  "distance": "12653.957",
  "restaurantInfo": {
    "restaurantID": "10"
  },
  "customerInfo": {
    "customerName": "mp4 dev",
    "customerMobilePhone": "0634454666",
    "customerAddress": "test",
    "location": {
      "lat": "15.1890597",
      "lng": "100.1367275"
    }
  }
} (34f4fcbd)
2021-10-10T22:20:19.9773448+07:00 4000004b-0002-fd00-b63f-84710c7967bb [INF] Host: localhost (0ee9ab49)
2021-10-10T22:20:19.9941049+07:00 4000004b-0002-fd00-b63f-84710c7967bb [INF] Client IP: ::1 (e950f482)
2021-10-10T22:28:13.0509728+07:00  [INF] Execution RecurringJobScheduler recovered from the Faulted state after 00:00:16.0547364 and is in the Running state now (3b5ca34b)
2021-10-10T22:28:13.0527555+07:00  [INF] Execution DelayedJobScheduler recovered from the Faulted state after 00:00:16.0547347 and is in the Running state now (3b5ca34b)
2021-10-10T22:28:35.7298176+07:00  [INF] Server arty:37436:3a4ae8af successfully announced in 340.7298 ms (3b5ca34b)
2021-10-10T22:28:35.7398457+07:00  [INF] Server arty:37436:3a4ae8af is starting the registered dispatchers: ServerWatchdog, ServerJobCancellationWatcher, ExpirationManager, CountersAggregator, Worker, DelayedJobScheduler, RecurringJobScheduler... (3b5ca34b)
2021-10-10T22:28:35.8211112+07:00  [INF] Server arty:37436:3a4ae8af all the dispatchers started (3b5ca34b)
2021-10-10T22:28:36.0097736+07:00  [INF] Application started. Press Ctrl+C to shut down. (dcaefe54)
2021-10-10T22:28:36.0127344+07:00  [INF] Hosting environment: "Development" (c3307c92)
2021-10-10T22:28:36.0146454+07:00  [INF] Content root path: "C:\Users\Sahar\Documents\ohoapp\OhoApp" (b5d60022)
2021-10-10T22:28:36.0598986+07:00 40000059-0000-ff00-b63f-84710c7967bb [INF] Header: {
  "Accept": [
    "text/html,application/xhtml+xml,application/xml;q=0.9,image/webp,image/apng,*/*;q=0.8,application/signed-exchange;v=b3;q=0.9"
  ],
  "Accept-Encoding": [
    "gzip, deflate, br"
  ],
  "Accept-Language": [
    "en-US,en;q=0.9"
  ],
  "Connection": [
    "close"
  ],
  "Host": [
    "localhost:44390"
  ],
  "User-Agent": [
    "Mozilla/5.0 (Windows NT 10.0; Win64; x64) AppleWebKit/537.36 (KHTML, like Gecko) Chrome/93.0.4577.82 Safari/537.36 Edg/93.0.961.52"
  ],
  "sec-ch-ua": [
    "\"Microsoft Edge\";v=\"93\", \" Not;A Brand\";v=\"99\", \"Chromium\";v=\"93\""
  ],
  "sec-ch-ua-mobile": [
    "?0"
  ],
  "sec-ch-ua-platform": [
    "\"Windows\""
  ],
  "upgrade-insecure-requests": [
    "1"
  ],
  "sec-fetch-site": [
    "none"
  ],
  "sec-fetch-mode": [
    "navigate"
  ],
  "sec-fetch-user": [
    "?1"
  ],
  "sec-fetch-dest": [
    "document"
  ]
} (77c6ecff)
2021-10-10T22:28:36.0776850+07:00 40000059-0000-ff00-b63f-84710c7967bb [INF] Body:  (273944e2)
2021-10-10T22:28:36.0798610+07:00 40000059-0000-ff00-b63f-84710c7967bb [INF] Host: localhost (0ee9ab49)
2021-10-10T22:28:36.0828748+07:00 40000059-0000-ff00-b63f-84710c7967bb [INF] Client IP: ::1 (e950f482)
2021-10-10T22:28:41.2078444+07:00 4000005b-0000-ff00-b63f-84710c7967bb [INF] Header: {
  "Accept": [
    "text/plain"
  ],
  "Accept-Encoding": [
    "gzip, deflate, br"
  ],
  "Accept-Language": [
    "en-US,en;q=0.9"
  ],
  "Connection": [
    "close"
  ],
  "Content-Length": [
    "64"
  ],
  "Content-Type": [
    "application/json"
  ],
  "Host": [
    "localhost:44390"
  ],
  "Referer": [
    "https://localhost:44390/swagger/index.html"
  ],
  "User-Agent": [
    "Mozilla/5.0 (Windows NT 10.0; Win64; x64) AppleWebKit/537.36 (KHTML, like Gecko) Chrome/93.0.4577.82 Safari/537.36 Edg/93.0.961.52"
  ],
  "sec-ch-ua": [
    "\"Microsoft Edge\";v=\"93\", \" Not;A Brand\";v=\"99\", \"Chromium\";v=\"93\""
  ],
  "sec-ch-ua-mobile": [
    "?0"
  ],
  "sec-ch-ua-platform": [
    "\"Windows\""
  ],
  "origin": [
    "https://localhost:44390"
  ],
  "sec-fetch-site": [
    "same-origin"
  ],
  "sec-fetch-mode": [
    "cors"
  ],
  "sec-fetch-dest": [
    "empty"
  ]
} (07f3205f)
2021-10-10T22:28:41.2174385+07:00 4000005b-0000-ff00-b63f-84710c7967bb [INF] Body: {
  "username": "hasrty40@gmail.com",
  "password": "test1150"
} (b73b5f5a)
2021-10-10T22:28:41.2209805+07:00 4000005b-0000-ff00-b63f-84710c7967bb [INF] Host: localhost (0ee9ab49)
2021-10-10T22:28:41.2240465+07:00 4000005b-0000-ff00-b63f-84710c7967bb [INF] Client IP: ::1 (e950f482)
2021-10-10T22:29:01.6964190+07:00 4000004f-0002-fd00-b63f-84710c7967bb [INF] Header: {
  "Accept": [
    "text/plain"
  ],
  "Accept-Encoding": [
    "gzip, deflate, br"
  ],
  "Accept-Language": [
    "en-US,en;q=0.9"
  ],
  "Authorization": [
    "bearer eyJhbGciOiJIUzI1NiIsInR5cCI6IkpXVCJ9.eyJodHRwOi8vc2NoZW1hcy54bWxzb2FwLm9yZy93cy8yMDA1LzA1L2lkZW50aXR5L2NsYWltcy9zaWQiOiI3Nzg5NThkOGUxMmE0YTg2OWM1ZjM4ZTFjMzU2Zjg3YSIsImh0dHA6Ly9zY2hlbWFzLnhtbHNvYXAub3JnL3dzLzIwMDUvMDUvaWRlbnRpdHkvY2xhaW1zL2VtYWlsYWRkcmVzcyI6Imhhc3J0eTQwQGdtYWlsLmNvbSIsImh0dHA6Ly9zY2hlbWFzLnhtbHNvYXAub3JnL3dzLzIwMDUvMDUvaWRlbnRpdHkvY2xhaW1zL21vYmlsZXBob25lIjoiMDk4MjcyNjA3NCIsImh0dHA6Ly9zY2hlbWFzLnhtbHNvYXAub3JnL3dzLzIwMDUvMDUvaWRlbnRpdHkvY2xhaW1zL25hbWVpZGVudGlmaWVyIjoiNSIsIm15a2V5IjoiT2hvQ3VzdG9tZXIiLCJleHAiOjE2NjU0MTU3MjF9.ybzkGS9JwvJ60bUk9nLxWnDEYcn-DINjErdrwIo2KFs"
  ],
  "Connection": [
    "close"
  ],
  "Host": [
    "localhost:44390"
  ],
  "Referer": [
    "https://localhost:44390/swagger/index.html"
  ],
  "User-Agent": [
    "Mozilla/5.0 (Windows NT 10.0; Win64; x64) AppleWebKit/537.36 (KHTML, like Gecko) Chrome/93.0.4577.82 Safari/537.36 Edg/93.0.961.52"
  ],
  "sec-ch-ua": [
    "\"Microsoft Edge\";v=\"93\", \" Not;A Brand\";v=\"99\", \"Chromium\";v=\"93\""
  ],
  "sec-ch-ua-mobile": [
    "?0"
  ],
  "sec-ch-ua-platform": [
    "\"Windows\""
  ],
  "sec-fetch-site": [
    "same-origin"
  ],
  "sec-fetch-mode": [
    "cors"
  ],
  "sec-fetch-dest": [
    "empty"
  ]
} (1bb7f6bd)
2021-10-10T22:29:01.6996817+07:00 4000004f-0002-fd00-b63f-84710c7967bb [INF] Body:  (273944e2)
2021-10-10T22:29:01.7025640+07:00 4000004f-0002-fd00-b63f-84710c7967bb [INF] Host: localhost (0ee9ab49)
2021-10-10T22:29:01.7055114+07:00 4000004f-0002-fd00-b63f-84710c7967bb [INF] Client IP: ::1 (e950f482)
2021-10-10T22:32:38.7123215+07:00  [INF] Server arty:12808:d63230e8 successfully announced in 300.5472 ms (3b5ca34b)
2021-10-10T22:32:38.7214299+07:00  [INF] Server arty:12808:d63230e8 is starting the registered dispatchers: ServerWatchdog, ServerJobCancellationWatcher, ExpirationManager, CountersAggregator, Worker, DelayedJobScheduler, RecurringJobScheduler... (3b5ca34b)
2021-10-10T22:32:38.7883333+07:00  [INF] Server arty:12808:d63230e8 all the dispatchers started (3b5ca34b)
2021-10-10T22:32:38.9740928+07:00  [INF] Application started. Press Ctrl+C to shut down. (dcaefe54)
2021-10-10T22:32:38.9764821+07:00  [INF] Hosting environment: "Development" (c3307c92)
2021-10-10T22:32:38.9781933+07:00  [INF] Content root path: "C:\Users\Sahar\Documents\ohoapp\OhoApp" (b5d60022)
2021-10-10T22:32:39.0180707+07:00 40000051-0002-fd00-b63f-84710c7967bb [INF] Header: {
  "Accept": [
    "text/html,application/xhtml+xml,application/xml;q=0.9,image/webp,image/apng,*/*;q=0.8,application/signed-exchange;v=b3;q=0.9"
  ],
  "Accept-Encoding": [
    "gzip, deflate, br"
  ],
  "Accept-Language": [
    "en-US,en;q=0.9"
  ],
  "Connection": [
    "close"
  ],
  "Host": [
    "localhost:44390"
  ],
  "User-Agent": [
    "Mozilla/5.0 (Windows NT 10.0; Win64; x64) AppleWebKit/537.36 (KHTML, like Gecko) Chrome/93.0.4577.82 Safari/537.36 Edg/93.0.961.52"
  ],
  "sec-ch-ua": [
    "\"Microsoft Edge\";v=\"93\", \" Not;A Brand\";v=\"99\", \"Chromium\";v=\"93\""
  ],
  "sec-ch-ua-mobile": [
    "?0"
  ],
  "sec-ch-ua-platform": [
    "\"Windows\""
  ],
  "upgrade-insecure-requests": [
    "1"
  ],
  "sec-fetch-site": [
    "none"
  ],
  "sec-fetch-mode": [
    "navigate"
  ],
  "sec-fetch-user": [
    "?1"
  ],
  "sec-fetch-dest": [
    "document"
  ]
} (77c6ecff)
2021-10-10T22:32:39.0354856+07:00 40000051-0002-fd00-b63f-84710c7967bb [INF] Body:  (273944e2)
2021-10-10T22:32:39.0376260+07:00 40000051-0002-fd00-b63f-84710c7967bb [INF] Host: localhost (0ee9ab49)
2021-10-10T22:32:39.0406047+07:00 40000051-0002-fd00-b63f-84710c7967bb [INF] Client IP: ::1 (e950f482)
2021-10-10T22:32:51.3964973+07:00 4000008a-0004-fe00-b63f-84710c7967bb [INF] Header: {
  "Accept": [
    "text/plain"
  ],
  "Accept-Encoding": [
    "gzip, deflate, br"
  ],
  "Accept-Language": [
    "en-US,en;q=0.9"
  ],
  "Authorization": [
    "bearer eyJhbGciOiJIUzI1NiIsInR5cCI6IkpXVCJ9.eyJodHRwOi8vc2NoZW1hcy54bWxzb2FwLm9yZy93cy8yMDA1LzA1L2lkZW50aXR5L2NsYWltcy9zaWQiOiI3Nzg5NThkOGUxMmE0YTg2OWM1ZjM4ZTFjMzU2Zjg3YSIsImh0dHA6Ly9zY2hlbWFzLnhtbHNvYXAub3JnL3dzLzIwMDUvMDUvaWRlbnRpdHkvY2xhaW1zL2VtYWlsYWRkcmVzcyI6Imhhc3J0eTQwQGdtYWlsLmNvbSIsImh0dHA6Ly9zY2hlbWFzLnhtbHNvYXAub3JnL3dzLzIwMDUvMDUvaWRlbnRpdHkvY2xhaW1zL21vYmlsZXBob25lIjoiMDk4MjcyNjA3NCIsImh0dHA6Ly9zY2hlbWFzLnhtbHNvYXAub3JnL3dzLzIwMDUvMDUvaWRlbnRpdHkvY2xhaW1zL25hbWVpZGVudGlmaWVyIjoiNSIsIm15a2V5IjoiT2hvQ3VzdG9tZXIiLCJleHAiOjE2NjU0MTU3MjF9.ybzkGS9JwvJ60bUk9nLxWnDEYcn-DINjErdrwIo2KFs"
  ],
  "Connection": [
    "close"
  ],
  "Host": [
    "localhost:44390"
  ],
  "Referer": [
    "https://localhost:44390/swagger/index.html"
  ],
  "User-Agent": [
    "Mozilla/5.0 (Windows NT 10.0; Win64; x64) AppleWebKit/537.36 (KHTML, like Gecko) Chrome/93.0.4577.82 Safari/537.36 Edg/93.0.961.52"
  ],
  "sec-ch-ua": [
    "\"Microsoft Edge\";v=\"93\", \" Not;A Brand\";v=\"99\", \"Chromium\";v=\"93\""
  ],
  "sec-ch-ua-mobile": [
    "?0"
  ],
  "sec-ch-ua-platform": [
    "\"Windows\""
  ],
  "sec-fetch-site": [
    "same-origin"
  ],
  "sec-fetch-mode": [
    "cors"
  ],
  "sec-fetch-dest": [
    "empty"
  ]
} (1bb7f6bd)
2021-10-10T22:32:51.3997762+07:00 4000008a-0004-fe00-b63f-84710c7967bb [INF] Body:  (273944e2)
2021-10-10T22:32:51.4023480+07:00 4000008a-0004-fe00-b63f-84710c7967bb [INF] Host: localhost (0ee9ab49)
2021-10-10T22:32:51.4115777+07:00 4000008a-0004-fe00-b63f-84710c7967bb [INF] Client IP: ::1 (e950f482)
