2021-10-02T21:46:26.5627376+07:00  [INF] Server arty:24436:69d05167 successfully announced in 426.11 ms (3b5ca34b)
2021-10-02T21:46:26.5761044+07:00  [INF] Server arty:24436:69d05167 is starting the registered dispatchers: ServerWatchdog, ServerJobCancellationWatcher, ExpirationManager, CountersAggregator, Worker, DelayedJobScheduler, RecurringJobScheduler... (3b5ca34b)
2021-10-02T21:46:26.6685538+07:00  [INF] Server arty:24436:69d05167 all the dispatchers started (3b5ca34b)
2021-10-02T21:46:26.9201228+07:00  [INF] Application started. Press Ctrl+C to shut down. (dcaefe54)
2021-10-02T21:46:26.9234990+07:00  [INF] Hosting environment: "Development" (c3307c92)
2021-10-02T21:46:26.9258850+07:00  [INF] Content root path: "C:\Users\Sahar\Documents\ohoapp\OhoApp" (b5d60022)
2021-10-02T21:46:26.9889081+07:00 40000002-0004-fe00-b63f-84710c7967bb [INF] Header: {
  "Accept": [
    "text/html,application/xhtml+xml,application/xml;q=0.9,image/webp,image/apng,*/*;q=0.8,application/signed-exchange;v=b3;q=0.9"
  ],
  "Accept-Encoding": [
    "gzip, deflate, br"
  ],
  "Accept-Language": [
    "en-US,en;q=0.9"
  ],
  "Connection": [
    "close"
  ],
  "Host": [
    "localhost:44390"
  ],
  "User-Agent": [
    "Mozilla/5.0 (Windows NT 10.0; Win64; x64) AppleWebKit/537.36 (KHTML, like Gecko) Chrome/93.0.4577.82 Safari/537.36 Edg/93.0.961.52"
  ],
  "sec-ch-ua": [
    "\"Microsoft Edge\";v=\"93\", \" Not;A Brand\";v=\"99\", \"Chromium\";v=\"93\""
  ],
  "sec-ch-ua-mobile": [
    "?0"
  ],
  "sec-ch-ua-platform": [
    "\"Windows\""
  ],
  "upgrade-insecure-requests": [
    "1"
  ],
  "sec-fetch-site": [
    "none"
  ],
  "sec-fetch-mode": [
    "navigate"
  ],
  "sec-fetch-user": [
    "?1"
  ],
  "sec-fetch-dest": [
    "document"
  ]
} (77c6ecff)
2021-10-02T21:46:27.0173533+07:00 40000002-0004-fe00-b63f-84710c7967bb [INF] Body:  (273944e2)
2021-10-02T21:46:27.0203058+07:00 40000002-0004-fe00-b63f-84710c7967bb [INF] Host: localhost (0ee9ab49)
2021-10-02T21:46:27.0251564+07:00 40000002-0004-fe00-b63f-84710c7967bb [INF] Client IP: ::1 (e950f482)
2021-10-02T21:46:43.1010677+07:00 40000002-0001-ff00-b63f-84710c7967bb [INF] Header: {
  "Accept": [
    "text/plain"
  ],
  "Accept-Encoding": [
    "gzip, deflate, br"
  ],
  "Accept-Language": [
    "en-US,en;q=0.9"
  ],
  "Connection": [
    "close"
  ],
  "Content-Length": [
    "61"
  ],
  "Content-Type": [
    "application/json"
  ],
  "Host": [
    "localhost:44390"
  ],
  "Referer": [
    "https://localhost:44390/swagger/index.html"
  ],
  "User-Agent": [
    "Mozilla/5.0 (Windows NT 10.0; Win64; x64) AppleWebKit/537.36 (KHTML, like Gecko) Chrome/93.0.4577.82 Safari/537.36 Edg/93.0.961.52"
  ],
  "sec-ch-ua": [
    "\"Microsoft Edge\";v=\"93\", \" Not;A Brand\";v=\"99\", \"Chromium\";v=\"93\""
  ],
  "sec-ch-ua-mobile": [
    "?0"
  ],
  "sec-ch-ua-platform": [
    "\"Windows\""
  ],
  "origin": [
    "https://localhost:44390"
  ],
  "sec-fetch-site": [
    "same-origin"
  ],
  "sec-fetch-mode": [
    "cors"
  ],
  "sec-fetch-dest": [
    "empty"
  ]
} (b93617a0)
2021-10-02T21:46:43.1153785+07:00 40000002-0001-ff00-b63f-84710c7967bb [INF] Body: {
  "email": "hasrty40@gmail.com",
  "password": "test1150"
} (1f079c33)
2021-10-02T21:46:43.1216061+07:00 40000002-0001-ff00-b63f-84710c7967bb [INF] Host: localhost (0ee9ab49)
2021-10-02T21:46:43.1263358+07:00 40000002-0001-ff00-b63f-84710c7967bb [INF] Client IP: ::1 (e950f482)
2021-10-02T21:49:31.8225171+07:00  [INF] Server arty:18280:d3cad20b successfully announced in 344.221 ms (3b5ca34b)
2021-10-02T21:49:31.8330746+07:00  [INF] Server arty:18280:d3cad20b is starting the registered dispatchers: ServerWatchdog, ServerJobCancellationWatcher, ExpirationManager, CountersAggregator, Worker, DelayedJobScheduler, RecurringJobScheduler... (3b5ca34b)
2021-10-02T21:49:31.9424704+07:00  [INF] Server arty:18280:d3cad20b all the dispatchers started (3b5ca34b)
2021-10-02T21:49:32.1372918+07:00  [INF] Application started. Press Ctrl+C to shut down. (dcaefe54)
2021-10-02T21:49:32.1408774+07:00  [INF] Hosting environment: "Development" (c3307c92)
2021-10-02T21:49:32.1433104+07:00  [INF] Content root path: "C:\Users\Sahar\Documents\ohoapp\OhoApp" (b5d60022)
2021-10-02T21:49:32.1992868+07:00 40000002-0001-fe00-b63f-84710c7967bb [INF] Header: {
  "Accept": [
    "text/html,application/xhtml+xml,application/xml;q=0.9,image/webp,image/apng,*/*;q=0.8,application/signed-exchange;v=b3;q=0.9"
  ],
  "Accept-Encoding": [
    "gzip, deflate, br"
  ],
  "Accept-Language": [
    "en-US,en;q=0.9"
  ],
  "Connection": [
    "close"
  ],
  "Host": [
    "localhost:44390"
  ],
  "User-Agent": [
    "Mozilla/5.0 (Windows NT 10.0; Win64; x64) AppleWebKit/537.36 (KHTML, like Gecko) Chrome/93.0.4577.82 Safari/537.36 Edg/93.0.961.52"
  ],
  "sec-ch-ua": [
    "\"Microsoft Edge\";v=\"93\", \" Not;A Brand\";v=\"99\", \"Chromium\";v=\"93\""
  ],
  "sec-ch-ua-mobile": [
    "?0"
  ],
  "sec-ch-ua-platform": [
    "\"Windows\""
  ],
  "upgrade-insecure-requests": [
    "1"
  ],
  "sec-fetch-site": [
    "none"
  ],
  "sec-fetch-mode": [
    "navigate"
  ],
  "sec-fetch-user": [
    "?1"
  ],
  "sec-fetch-dest": [
    "document"
  ]
} (77c6ecff)
2021-10-02T21:49:32.2279683+07:00 40000002-0001-fe00-b63f-84710c7967bb [INF] Body:  (273944e2)
2021-10-02T21:49:32.2310940+07:00 40000002-0001-fe00-b63f-84710c7967bb [INF] Host: localhost (0ee9ab49)
2021-10-02T21:49:32.2360422+07:00 40000002-0001-fe00-b63f-84710c7967bb [INF] Client IP: ::1 (e950f482)
2021-10-02T21:49:37.3558613+07:00 40000004-0001-fe00-b63f-84710c7967bb [INF] Header: {
  "Accept": [
    "text/plain"
  ],
  "Accept-Encoding": [
    "gzip, deflate, br"
  ],
  "Accept-Language": [
    "en-US,en;q=0.9"
  ],
  "Connection": [
    "close"
  ],
  "Content-Length": [
    "61"
  ],
  "Content-Type": [
    "application/json"
  ],
  "Host": [
    "localhost:44390"
  ],
  "Referer": [
    "https://localhost:44390/swagger/index.html"
  ],
  "User-Agent": [
    "Mozilla/5.0 (Windows NT 10.0; Win64; x64) AppleWebKit/537.36 (KHTML, like Gecko) Chrome/93.0.4577.82 Safari/537.36 Edg/93.0.961.52"
  ],
  "sec-ch-ua": [
    "\"Microsoft Edge\";v=\"93\", \" Not;A Brand\";v=\"99\", \"Chromium\";v=\"93\""
  ],
  "sec-ch-ua-mobile": [
    "?0"
  ],
  "sec-ch-ua-platform": [
    "\"Windows\""
  ],
  "origin": [
    "https://localhost:44390"
  ],
  "sec-fetch-site": [
    "same-origin"
  ],
  "sec-fetch-mode": [
    "cors"
  ],
  "sec-fetch-dest": [
    "empty"
  ]
} (b93617a0)
2021-10-02T21:49:37.3716256+07:00 40000004-0001-fe00-b63f-84710c7967bb [INF] Body: {
  "email": "hasrty40@gmail.com",
  "password": "test1150"
} (1f079c33)
2021-10-02T21:49:37.3745282+07:00 40000004-0001-fe00-b63f-84710c7967bb [INF] Host: localhost (0ee9ab49)
2021-10-02T21:49:37.3786299+07:00 40000004-0001-fe00-b63f-84710c7967bb [INF] Client IP: ::1 (e950f482)
2021-10-02T21:50:24.6460290+07:00  [INF] Server arty:6548:b86f8122 successfully announced in 319.6677 ms (3b5ca34b)
2021-10-02T21:50:24.6555495+07:00  [INF] Server arty:6548:b86f8122 is starting the registered dispatchers: ServerWatchdog, ServerJobCancellationWatcher, ExpirationManager, CountersAggregator, Worker, DelayedJobScheduler, RecurringJobScheduler... (3b5ca34b)
2021-10-02T21:50:24.7355189+07:00  [INF] Server arty:6548:b86f8122 all the dispatchers started (3b5ca34b)
2021-10-02T21:50:24.9643155+07:00  [INF] Application started. Press Ctrl+C to shut down. (dcaefe54)
2021-10-02T21:50:24.9677398+07:00  [INF] Hosting environment: "Development" (c3307c92)
2021-10-02T21:50:24.9696881+07:00  [INF] Content root path: "C:\Users\Sahar\Documents\ohoapp\OhoApp" (b5d60022)
2021-10-02T21:50:25.0150867+07:00 40000002-0003-fe00-b63f-84710c7967bb [INF] Header: {
  "Accept": [
    "text/html,application/xhtml+xml,application/xml;q=0.9,image/webp,image/apng,*/*;q=0.8,application/signed-exchange;v=b3;q=0.9"
  ],
  "Accept-Encoding": [
    "gzip, deflate, br"
  ],
  "Accept-Language": [
    "en-US,en;q=0.9"
  ],
  "Connection": [
    "close"
  ],
  "Host": [
    "localhost:44390"
  ],
  "User-Agent": [
    "Mozilla/5.0 (Windows NT 10.0; Win64; x64) AppleWebKit/537.36 (KHTML, like Gecko) Chrome/93.0.4577.82 Safari/537.36 Edg/93.0.961.52"
  ],
  "sec-ch-ua": [
    "\"Microsoft Edge\";v=\"93\", \" Not;A Brand\";v=\"99\", \"Chromium\";v=\"93\""
  ],
  "sec-ch-ua-mobile": [
    "?0"
  ],
  "sec-ch-ua-platform": [
    "\"Windows\""
  ],
  "upgrade-insecure-requests": [
    "1"
  ],
  "sec-fetch-site": [
    "none"
  ],
  "sec-fetch-mode": [
    "navigate"
  ],
  "sec-fetch-user": [
    "?1"
  ],
  "sec-fetch-dest": [
    "document"
  ]
} (77c6ecff)
2021-10-02T21:50:25.0357510+07:00 40000002-0003-fe00-b63f-84710c7967bb [INF] Body:  (273944e2)
2021-10-02T21:50:25.0384322+07:00 40000002-0003-fe00-b63f-84710c7967bb [INF] Host: localhost (0ee9ab49)
2021-10-02T21:50:25.0419158+07:00 40000002-0003-fe00-b63f-84710c7967bb [INF] Client IP: ::1 (e950f482)
